<?xml version="1.0"?>
<svg xmlns="http://www.w3.org/2000/svg" xmlns:xlink="http://www.w3.org/1999/xlink" version="1.1" id="Capa_1" x="0px" y="0px" width="512px" height="512px" viewBox="0 0 215.474 215.474" style="enable-background:new 0 0 215.474 215.474;" xml:space="preserve" class=""><g><g>
	<g>
		<path d="M81.878,134.835c-1.371-1.369-3.584-1.369-4.955,0l-48.99,48.995c-1.371,1.369-1.371,3.583,0,4.955    c0.683,0.682,1.579,1.027,2.478,1.027c0.896,0,1.793-0.346,2.478-1.027l48.99-48.995    C83.249,138.422,83.249,136.204,81.878,134.835z" data-original="#000000" class="active-path" data-old_color="#f6854a" fill="#f6854a"/>
		<path d="M71.965,124.921c-1.371-1.368-3.585-1.368-4.956,0l-48.99,48.992c-1.371,1.369-1.371,3.583,0,4.955    c0.683,0.685,1.581,1.026,2.478,1.026s1.795-0.342,2.478-1.026l48.99-48.992C73.335,128.511,73.335,126.294,71.965,124.921z" data-original="#000000" class="active-path" data-old_color="#f6854a" fill="#f6854a"/>
		<path d="M85.597,143.514l-48.993,48.992c-1.371,1.372-1.371,3.586,0,4.955c0.683,0.685,1.579,1.026,2.478,1.026    c0.896,0,1.793-0.342,2.476-1.026l48.995-48.988c1.369-1.372,1.369-3.587,0-4.955C89.182,142.145,86.966,142.142,85.597,143.514z" data-original="#000000" class="active-path" data-old_color="#f6854a" fill="#f6854a"/>
		<path d="M214.446,13.419L202.055,1.027c-1.249-1.247-3.241-1.371-4.63-0.291l-19.931,15.506c-1.034,0.653-1.917,1.35-2.7,2.132    c-5.294,5.294-5.999,13.436-2.174,19.521l-61.26,61.262L95.254,83.053c-1.314-1.314-3.641-1.314-4.955,0l-10.61,10.61    c-1.371,1.371-1.371,3.585,0,4.956c2.729,2.729,2.729,7.176,0,9.907c-2.657,2.649-7.269,2.646-9.914,0    c-0.659-0.657-1.548-1.026-2.481-1.026c-0.929,0-1.822,0.369-2.478,1.026l-56.089,56.1C3.102,170.251,0,177.729,0,185.688    c0,7.957,3.099,15.434,8.727,21.061c5.628,5.622,13.108,8.723,21.063,8.723c7.955,0,15.434-3.101,21.058-8.723l56.096-56.093    c0.659-0.661,1.023-1.547,1.023-2.478c0-0.935-0.365-1.824-1.023-2.479c-2.732-2.73-2.732-7.183,0-9.914    c2.639-2.648,7.26-2.655,9.909,0c1.372,1.369,3.586,1.369,4.955,0l10.608-10.608c1.369-1.369,1.369-3.583,0-4.955l-16.104-16.11    l61.271-61.262c2.484,1.569,5.352,2.438,8.363,2.438c4.209,0,8.172-1.639,11.133-4.596c0.79-0.775,1.492-1.665,2.152-2.714    l15.506-19.933C215.818,16.652,215.698,14.669,214.446,13.419z M119.022,128.665c-5.276-3.128-12.586-2.279-17.034,2.166    c-4.608,4.609-5.33,11.659-2.161,17.029l-53.935,53.933c-4.3,4.302-10.015,6.67-16.1,6.67c-6.083,0-11.805-2.371-16.108-6.67    c-4.303-4.302-6.673-10.02-6.673-16.104c0-6.081,2.37-11.803,6.673-16.108l53.923-53.93c5.275,3.125,12.585,2.276,17.039-2.169    c4.608-4.606,5.33-11.653,2.165-17.026l5.968-5.97l32.211,32.21L119.022,128.665z M193.588,33.82    c-0.078,0.099-0.15,0.204-0.216,0.313c-0.39,0.633-0.79,1.145-1.231,1.58c-3.312,3.308-9.075,3.308-12.388,0    c-3.412-3.417-3.412-8.971,0-12.387c0.434-0.435,0.951-0.835,1.591-1.227c0.106-0.067,0.216-0.141,0.312-0.217l17.631-13.716    l8.018,8.018L193.588,33.82z" data-original="#000000" class="active-path" data-old_color="#f6854a" fill="#f6854a"/>
	</g>
</g></g> </svg>
