0000.001 (0) Opened log file at time: Thu, 07 Nov 2019 13:38:50 +0000 on http://localhost:8888/extranet
0000.004 (0) UpdraftPlus WordPress backup plugin (https://updraftplus.com): 1.16.4 WP: 5.0.3 PHP: 7.2.10 (apache2handler, Darwin DGiMacclaudeemmanuel.local 17.4.0 Darwin Kernel Version 17.4.0: Sun Dec 17 09:19:54 PST 2017; root:xnu-4570.41.2~1/RELEASE_X86_64 x86_64) MySQL: 5.7.23 WPLANG: fr_FR Server: Apache/2.2.34 (Unix) mod_wsgi/3.5 Python/2.7.13 PHP/7.2.10 mod_ssl/2.2.34 OpenSSL/1.0.2o DAV/2 mod_fastcgi/mod_fastcgi-SNAP-0910052141 mod_perl/2.0.9 Perl/v5.24.0 safe_mode: 0 max_execution_time: 900 memory_limit: 256M (used: 90.6M | 6.5M) multisite: N openssl: OpenSSL 1.0.2o  27 Mar 2018 mcrypt: N LANG:  ZipArchive::addFile: Y
0000.006 (0) Free space on disk containing Updraft's temporary directory: 465639.5 MB
0000.009 (0) Tasks: Backup files:  (schedule: manual) Backup DB: 1 (schedule: daily)
0000.010 (0) Processed schedules. Tasks now: Backup files:  Backup DB: 1
0000.021 (0) Requesting semaphore lock (d) (apparently via scheduler: last_scheduled_action_called_at=1573047471, seconds_ago=86459)
0000.027 (0) Set semaphore last lock (d) time to 2019-11-07 13:38:50
0000.028 (0) Semaphore lock (d) complete
0000.033 (0) Backup run: resumption=0, nonce=515ce9640236, file_nonce=515ce9640236 begun at=1573133930 (1s ago), job type=backup
0000.036 (0) Scheduling a resumption (1) after 300 seconds (1573134231) in case this run gets aborted
0000.050 (0) This backup run is not intended for files - skipping
0000.051 (0) Beginning creation of database dump (WordPress DB)
0000.213 (0) Table extrn_options: Total expected rows (approximate): 2782
0000.994 (0) Table extrn_options: Total rows added: 2773 in 0.78 seconds
0001.001 (0) Table extrn_options: finishing file (backup_2019-11-07-1438_Espace_Extranet_515ce9640236-db-table-extrn_options.table.gz - 2496.7 KB)
0001.008 (0) Table extrn_users: Total expected rows (approximate): 7
0001.011 (0) Table extrn_users: Total rows added: 7 in 0.00 seconds
0001.013 (0) Table extrn_users: finishing file (backup_2019-11-07-1438_Espace_Extranet_515ce9640236-db-table-extrn_users.table.gz - 1.1 KB)
0001.018 (0) Table extrn_usermeta: Total expected rows (approximate): 767
0001.040 (0) Table extrn_usermeta: Total rows added: 826 in 0.02 seconds
0001.042 (0) Table extrn_usermeta: finishing file (backup_2019-11-07-1438_Espace_Extranet_515ce9640236-db-table-extrn_usermeta.table.gz - 12.5 KB)
0001.046 (0) Table extrn_commentmeta: Total expected rows (approximate): 0
0001.049 (0) Table extrn_commentmeta: Total rows added: 0 in 0.00 seconds
0001.053 (0) Table extrn_commentmeta: finishing file (backup_2019-11-07-1438_Espace_Extranet_515ce9640236-db-table-extrn_commentmeta.table.gz - 0.4 KB)
0001.058 (0) Table extrn_comments: Total expected rows (approximate): 3
0001.063 (0) Table extrn_comments: Total rows added: 3 in 0.00 seconds
0001.064 (0) Table extrn_comments: finishing file (backup_2019-11-07-1438_Espace_Extranet_515ce9640236-db-table-extrn_comments.table.gz - 0.8 KB)
0001.070 (0) Table extrn_links: Total expected rows (approximate): 0
0001.072 (0) Table extrn_links: Total rows added: 0 in 0.00 seconds
0001.074 (0) Table extrn_links: finishing file (backup_2019-11-07-1438_Espace_Extranet_515ce9640236-db-table-extrn_links.table.gz - 0.4 KB)
0001.080 (0) Table extrn_postmeta: Total expected rows (approximate): 7117
0001.369 (0) Table extrn_postmeta: Total rows added: 9055 in 0.29 seconds
0001.372 (0) Table extrn_postmeta: finishing file (backup_2019-11-07-1438_Espace_Extranet_515ce9640236-db-table-extrn_postmeta.table.gz - 176.8 KB)
0001.378 (0) Table extrn_posts: Total expected rows (approximate): 2311
0001.634 (0) Table extrn_posts: Total rows added: 2311 in 0.25 seconds
0001.636 (0) Table extrn_posts: finishing file (backup_2019-11-07-1438_Espace_Extranet_515ce9640236-db-table-extrn_posts.table.gz - 111.1 KB)
0001.641 (0) Table extrn_term_relationships: Total expected rows (approximate): 406
0001.647 (0) Table extrn_term_relationships: Total rows added: 406 in 0.01 seconds
0001.649 (0) Table extrn_term_relationships: finishing file (backup_2019-11-07-1438_Espace_Extranet_515ce9640236-db-table-extrn_term_relationships.table.gz - 1.5 KB)
0001.654 (0) Table extrn_term_taxonomy: Total expected rows (approximate): 169
0001.660 (0) Table extrn_term_taxonomy: Total rows added: 169 in 0.00 seconds
0001.662 (0) Table extrn_term_taxonomy: finishing file (backup_2019-11-07-1438_Espace_Extranet_515ce9640236-db-table-extrn_term_taxonomy.table.gz - 1.7 KB)
0001.667 (0) Table extrn_termmeta: Total expected rows (approximate): 302
0001.675 (0) Table extrn_termmeta: Total rows added: 306 in 0.01 seconds
0001.677 (0) Table extrn_termmeta: finishing file (backup_2019-11-07-1438_Espace_Extranet_515ce9640236-db-table-extrn_termmeta.table.gz - 3.5 KB)
0001.682 (0) Table extrn_terms: Total expected rows (approximate): 169
0001.690 (0) Table extrn_terms: Total rows added: 169 in 0.01 seconds
0001.691 (0) Table extrn_terms: finishing file (backup_2019-11-07-1438_Espace_Extranet_515ce9640236-db-table-extrn_terms.table.gz - 3.3 KB)
0001.723 (0) Table extrn_ahm_download_stats: Total expected rows (approximate): 0
0001.727 (0) Table extrn_ahm_download_stats: Total rows added: 0 in 0.00 seconds
0001.728 (0) Table extrn_ahm_download_stats: finishing file (backup_2019-11-07-1438_Espace_Extranet_515ce9640236-db-table-extrn_ahm_download_stats.table.gz - 0.3 KB)
0001.732 (0) Table extrn_ahm_emails: Total expected rows (approximate): 0
0001.735 (0) Table extrn_ahm_emails: Total rows added: 0 in 0.00 seconds
0001.736 (0) Table extrn_ahm_emails: finishing file (backup_2019-11-07-1438_Espace_Extranet_515ce9640236-db-table-extrn_ahm_emails.table.gz - 0.3 KB)
0001.741 (0) Table extrn_alm: Total expected rows (approximate): 0
0001.743 (0) Table extrn_alm: Total rows added: 1 in 0.00 seconds
0001.744 (0) Table extrn_alm: finishing file (backup_2019-11-07-1438_Espace_Extranet_515ce9640236-db-table-extrn_alm.table.gz - 0.3 KB)
0001.749 (0) Table extrn_alm_unlimited: Total expected rows (approximate): 8
0001.752 (0) Table extrn_alm_unlimited: Total rows added: 9 in 0.00 seconds
0001.754 (0) Table extrn_alm_unlimited: finishing file (backup_2019-11-07-1438_Espace_Extranet_515ce9640236-db-table-extrn_alm_unlimited.table.gz - 2.3 KB)
0001.759 (0) Table extrn_bookacti_activities: Total expected rows (approximate): 0
0001.761 (0) Table extrn_bookacti_activities: Total rows added: 0 in 0.00 seconds
0001.762 (0) Table extrn_bookacti_activities: finishing file (backup_2019-11-07-1438_Espace_Extranet_515ce9640236-db-table-extrn_bookacti_activities.table.gz - 0.4 KB)
0001.767 (0) Table extrn_bookacti_booking_groups: Total expected rows (approximate): 0
0001.769 (0) Table extrn_bookacti_booking_groups: Total rows added: 0 in 0.00 seconds
0001.771 (0) Table extrn_bookacti_booking_groups: finishing file (backup_2019-11-07-1438_Espace_Extranet_515ce9640236-db-table-extrn_bookacti_booking_groups.table.gz - 0.4 KB)
0001.775 (0) Table extrn_bookacti_bookings: Total expected rows (approximate): 0
0001.777 (0) Table extrn_bookacti_bookings: Total rows added: 0 in 0.00 seconds
0001.779 (0) Table extrn_bookacti_bookings: finishing file (backup_2019-11-07-1438_Espace_Extranet_515ce9640236-db-table-extrn_bookacti_bookings.table.gz - 0.4 KB)
0001.784 (0) Table extrn_bookacti_event_groups: Total expected rows (approximate): 0
0001.786 (0) Table extrn_bookacti_event_groups: Total rows added: 0 in 0.00 seconds
0001.787 (0) Table extrn_bookacti_event_groups: finishing file (backup_2019-11-07-1438_Espace_Extranet_515ce9640236-db-table-extrn_bookacti_event_groups.table.gz - 0.3 KB)
0001.792 (0) Table extrn_bookacti_events: Total expected rows (approximate): 0
0001.795 (0) Table extrn_bookacti_events: Total rows added: 0 in 0.00 seconds
0001.796 (0) Table extrn_bookacti_events: finishing file (backup_2019-11-07-1438_Espace_Extranet_515ce9640236-db-table-extrn_bookacti_events.table.gz - 0.4 KB)
0001.801 (0) Table extrn_bookacti_exceptions: Total expected rows (approximate): 0
0001.803 (0) Table extrn_bookacti_exceptions: Total rows added: 0 in 0.00 seconds
0001.805 (0) Table extrn_bookacti_exceptions: finishing file (backup_2019-11-07-1438_Espace_Extranet_515ce9640236-db-table-extrn_bookacti_exceptions.table.gz - 0.3 KB)
0001.809 (0) Table extrn_bookacti_form_fields: Total expected rows (approximate): 0
0001.811 (0) Table extrn_bookacti_form_fields: Total rows added: 0 in 0.00 seconds
0001.813 (0) Table extrn_bookacti_form_fields: finishing file (backup_2019-11-07-1438_Espace_Extranet_515ce9640236-db-table-extrn_bookacti_form_fields.table.gz - 0.4 KB)
0001.818 (0) Table extrn_bookacti_forms: Total expected rows (approximate): 0
0001.820 (0) Table extrn_bookacti_forms: Total rows added: 0 in 0.00 seconds
0001.821 (0) Table extrn_bookacti_forms: finishing file (backup_2019-11-07-1438_Espace_Extranet_515ce9640236-db-table-extrn_bookacti_forms.table.gz - 0.4 KB)
0001.826 (0) Table extrn_bookacti_group_categories: Total expected rows (approximate): 0
0001.830 (0) Table extrn_bookacti_group_categories: Total rows added: 0 in 0.00 seconds
0001.832 (0) Table extrn_bookacti_group_categories: finishing file (backup_2019-11-07-1438_Espace_Extranet_515ce9640236-db-table-extrn_bookacti_group_categories.table.gz - 0.3 KB)
0001.837 (0) Table extrn_bookacti_groups_events: Total expected rows (approximate): 0
0001.840 (0) Table extrn_bookacti_groups_events: Total rows added: 0 in 0.00 seconds
0001.843 (0) Table extrn_bookacti_groups_events: finishing file (backup_2019-11-07-1438_Espace_Extranet_515ce9640236-db-table-extrn_bookacti_groups_events.table.gz - 0.3 KB)
0001.848 (0) Table extrn_bookacti_meta: Total expected rows (approximate): 10
0001.851 (0) Table extrn_bookacti_meta: Total rows added: 10 in 0.00 seconds
0001.852 (0) Table extrn_bookacti_meta: finishing file (backup_2019-11-07-1438_Espace_Extranet_515ce9640236-db-table-extrn_bookacti_meta.table.gz - 0.5 KB)
0001.857 (0) Table extrn_bookacti_permissions: Total expected rows (approximate): 0
0001.859 (0) Table extrn_bookacti_permissions: Total rows added: 0 in 0.00 seconds
0001.860 (0) Table extrn_bookacti_permissions: finishing file (backup_2019-11-07-1438_Espace_Extranet_515ce9640236-db-table-extrn_bookacti_permissions.table.gz - 0.3 KB)
0001.865 (0) Table extrn_bookacti_templates: Total expected rows (approximate): 2
0001.867 (0) Table extrn_bookacti_templates: Total rows added: 2 in 0.00 seconds
0001.869 (0) Table extrn_bookacti_templates: finishing file (backup_2019-11-07-1438_Espace_Extranet_515ce9640236-db-table-extrn_bookacti_templates.table.gz - 0.4 KB)
0001.874 (0) Table extrn_bookacti_templates_activities: Total expected rows (approximate): 0
0001.876 (0) Table extrn_bookacti_templates_activities: Total rows added: 0 in 0.00 seconds
0001.878 (0) Table extrn_bookacti_templates_activities: finishing file (backup_2019-11-07-1438_Espace_Extranet_515ce9640236-db-table-extrn_bookacti_templates_activities.table.gz - 0.3 KB)
0001.882 (0) Table extrn_booking: Total expected rows (approximate): 0
0001.885 (0) Table extrn_booking: Total rows added: 1 in 0.00 seconds
0001.886 (0) Table extrn_booking: finishing file (backup_2019-11-07-1438_Espace_Extranet_515ce9640236-db-table-extrn_booking.table.gz - 0.6 KB)
0001.891 (0) Table extrn_bookingdates: Total expected rows (approximate): 3
0001.893 (0) Table extrn_bookingdates: Total rows added: 3 in 0.00 seconds
0001.895 (0) Table extrn_bookingdates: finishing file (backup_2019-11-07-1438_Espace_Extranet_515ce9640236-db-table-extrn_bookingdates.table.gz - 0.4 KB)
0001.899 (0) Table extrn_bwg_album: Total expected rows (approximate): 0
0001.902 (0) Table extrn_bwg_album: Total rows added: 0 in 0.00 seconds
0001.903 (0) Table extrn_bwg_album: finishing file (backup_2019-11-07-1438_Espace_Extranet_515ce9640236-db-table-extrn_bwg_album.table.gz - 0.4 KB)
0001.907 (0) Table extrn_bwg_album_gallery: Total expected rows (approximate): 0
0001.910 (0) Table extrn_bwg_album_gallery: Total rows added: 0 in 0.00 seconds
0001.911 (0) Table extrn_bwg_album_gallery: finishing file (backup_2019-11-07-1438_Espace_Extranet_515ce9640236-db-table-extrn_bwg_album_gallery.table.gz - 0.3 KB)
0001.916 (0) Table extrn_bwg_file_paths: Total expected rows (approximate): 5
0001.919 (0) Table extrn_bwg_file_paths: Total rows added: 5 in 0.00 seconds
0001.920 (0) Table extrn_bwg_file_paths: finishing file (backup_2019-11-07-1438_Espace_Extranet_515ce9640236-db-table-extrn_bwg_file_paths.table.gz - 0.7 KB)
0001.925 (0) Table extrn_bwg_gallery: Total expected rows (approximate): 0
0001.928 (0) Table extrn_bwg_gallery: Total rows added: 1 in 0.00 seconds
0001.930 (0) Table extrn_bwg_gallery: finishing file (backup_2019-11-07-1438_Espace_Extranet_515ce9640236-db-table-extrn_bwg_gallery.table.gz - 0.5 KB)
0001.934 (0) Table extrn_bwg_image: Total expected rows (approximate): 5
0001.938 (0) Table extrn_bwg_image: Total rows added: 5 in 0.00 seconds
0001.939 (0) Table extrn_bwg_image: finishing file (backup_2019-11-07-1438_Espace_Extranet_515ce9640236-db-table-extrn_bwg_image.table.gz - 0.8 KB)
0001.944 (0) Table extrn_bwg_image_comment: Total expected rows (approximate): 0
0001.947 (0) Table extrn_bwg_image_comment: Total rows added: 0 in 0.00 seconds
0001.948 (0) Table extrn_bwg_image_comment: finishing file (backup_2019-11-07-1438_Espace_Extranet_515ce9640236-db-table-extrn_bwg_image_comment.table.gz - 0.4 KB)
0001.954 (0) Table extrn_bwg_image_rate: Total expected rows (approximate): 0
0001.956 (0) Table extrn_bwg_image_rate: Total rows added: 0 in 0.00 seconds
0001.958 (0) Table extrn_bwg_image_rate: finishing file (backup_2019-11-07-1438_Espace_Extranet_515ce9640236-db-table-extrn_bwg_image_rate.table.gz - 0.3 KB)
0001.963 (0) Table extrn_bwg_image_tag: Total expected rows (approximate): 0
0001.965 (0) Table extrn_bwg_image_tag: Total rows added: 0 in 0.00 seconds
0001.967 (0) Table extrn_bwg_image_tag: finishing file (backup_2019-11-07-1438_Espace_Extranet_515ce9640236-db-table-extrn_bwg_image_tag.table.gz - 0.3 KB)
0001.971 (0) Table extrn_bwg_shortcode: Total expected rows (approximate): 0
0001.974 (0) Table extrn_bwg_shortcode: Total rows added: 1 in 0.00 seconds
0001.975 (0) Table extrn_bwg_shortcode: finishing file (backup_2019-11-07-1438_Espace_Extranet_515ce9640236-db-table-extrn_bwg_shortcode.table.gz - 0.4 KB)
0001.980 (0) Table extrn_bwg_theme: Total expected rows (approximate): 2
0002.003 (0) Table extrn_bwg_theme: Total rows added: 2 in 0.02 seconds
0002.005 (0) Table extrn_bwg_theme: finishing file (backup_2019-11-07-1438_Espace_Extranet_515ce9640236-db-table-extrn_bwg_theme.table.gz - 4.3 KB)
0002.009 (0) Table extrn_c2pprojects: Total expected rows (approximate): 0
0002.012 (0) Table extrn_c2pprojects: Total rows added: 1 in 0.00 seconds
0002.014 (0) Table extrn_c2pprojects: finishing file (backup_2019-11-07-1438_Espace_Extranet_515ce9640236-db-table-extrn_c2pprojects.table.gz - 0.6 KB)
0002.018 (0) Table extrn_c2psources: Total expected rows (approximate): 2
0002.021 (0) Table extrn_c2psources: Total rows added: 2 in 0.00 seconds
0002.023 (0) Table extrn_c2psources: finishing file (backup_2019-11-07-1438_Espace_Extranet_515ce9640236-db-table-extrn_c2psources.table.gz - 1.1 KB)
0002.027 (0) Table extrn_cfs_sessions: Total expected rows (approximate): 34
0002.030 (0) Table extrn_cfs_sessions: Total rows added: 36 in 0.00 seconds
0002.032 (0) Table extrn_cfs_sessions: finishing file (backup_2019-11-07-1438_Espace_Extranet_515ce9640236-db-table-extrn_cfs_sessions.table.gz - 1.4 KB)
0002.038 (0) Table extrn_cfs_values: Total expected rows (approximate): 77
0002.042 (0) Table extrn_cfs_values: Total rows added: 77 in 0.00 seconds
0002.043 (0) Table extrn_cfs_values: finishing file (backup_2019-11-07-1438_Espace_Extranet_515ce9640236-db-table-extrn_cfs_values.table.gz - 0.7 KB)
0002.048 (0) Table extrn_connections: Total expected rows (approximate): 0
0002.051 (0) Table extrn_connections: Total rows added: 0 in 0.00 seconds
0002.052 (0) Table extrn_connections: finishing file (backup_2019-11-07-1438_Espace_Extranet_515ce9640236-db-table-extrn_connections.table.gz - 0.6 KB)
0002.057 (0) Table extrn_connections_address: Total expected rows (approximate): 0
0002.060 (0) Table extrn_connections_address: Total rows added: 0 in 0.00 seconds
0002.061 (0) Table extrn_connections_address: finishing file (backup_2019-11-07-1438_Espace_Extranet_515ce9640236-db-table-extrn_connections_address.table.gz - 0.5 KB)
0002.066 (0) Table extrn_connections_date: Total expected rows (approximate): 0
0002.068 (0) Table extrn_connections_date: Total rows added: 0 in 0.00 seconds
0002.069 (0) Table extrn_connections_date: finishing file (backup_2019-11-07-1438_Espace_Extranet_515ce9640236-db-table-extrn_connections_date.table.gz - 0.4 KB)
0002.074 (0) Table extrn_connections_email: Total expected rows (approximate): 0
0002.076 (0) Table extrn_connections_email: Total rows added: 0 in 0.00 seconds
0002.078 (0) Table extrn_connections_email: finishing file (backup_2019-11-07-1438_Espace_Extranet_515ce9640236-db-table-extrn_connections_email.table.gz - 0.4 KB)
0002.085 (0) Table extrn_connections_link: Total expected rows (approximate): 0
0002.087 (0) Table extrn_connections_link: Total rows added: 0 in 0.00 seconds
0002.088 (0) Table extrn_connections_link: finishing file (backup_2019-11-07-1438_Espace_Extranet_515ce9640236-db-table-extrn_connections_link.table.gz - 0.4 KB)
0002.093 (0) Table extrn_connections_messenger: Total expected rows (approximate): 0
0002.095 (0) Table extrn_connections_messenger: Total rows added: 0 in 0.00 seconds
0002.096 (0) Table extrn_connections_messenger: finishing file (backup_2019-11-07-1438_Espace_Extranet_515ce9640236-db-table-extrn_connections_messenger.table.gz - 0.4 KB)
0002.101 (0) Table extrn_connections_meta: Total expected rows (approximate): 0
0002.105 (0) Table extrn_connections_meta: Total rows added: 0 in 0.00 seconds
0002.108 (0) Table extrn_connections_meta: finishing file (backup_2019-11-07-1438_Espace_Extranet_515ce9640236-db-table-extrn_connections_meta.table.gz - 0.4 KB)
0002.113 (0) Table extrn_connections_phone: Total expected rows (approximate): 0
0002.115 (0) Table extrn_connections_phone: Total rows added: 0 in 0.00 seconds
0002.116 (0) Table extrn_connections_phone: finishing file (backup_2019-11-07-1438_Espace_Extranet_515ce9640236-db-table-extrn_connections_phone.table.gz - 0.4 KB)
0002.121 (0) Table extrn_connections_social: Total expected rows (approximate): 0
0002.123 (0) Table extrn_connections_social: Total rows added: 0 in 0.00 seconds
0002.125 (0) Table extrn_connections_social: finishing file (backup_2019-11-07-1438_Espace_Extranet_515ce9640236-db-table-extrn_connections_social.table.gz - 0.4 KB)
0002.129 (0) Table extrn_connections_term_meta: Total expected rows (approximate): 0
0002.131 (0) Table extrn_connections_term_meta: Total rows added: 0 in 0.00 seconds
0002.133 (0) Table extrn_connections_term_meta: finishing file (backup_2019-11-07-1438_Espace_Extranet_515ce9640236-db-table-extrn_connections_term_meta.table.gz - 0.4 KB)
0002.137 (0) Table extrn_connections_term_relationships: Total expected rows (approximate): 0
0002.139 (0) Table extrn_connections_term_relationships: Total rows added: 0 in 0.00 seconds
0002.141 (0) Table extrn_connections_term_relationships: finishing file (backup_2019-11-07-1438_Espace_Extranet_515ce9640236-db-table-extrn_connections_term_relationships.table.gz - 0.3 KB)
0002.145 (0) Table extrn_connections_term_taxonomy: Total expected rows (approximate): 0
0002.148 (0) Table extrn_connections_term_taxonomy: Total rows added: 1 in 0.00 seconds
0002.149 (0) Table extrn_connections_term_taxonomy: finishing file (backup_2019-11-07-1438_Espace_Extranet_515ce9640236-db-table-extrn_connections_term_taxonomy.table.gz - 0.4 KB)
0002.154 (0) Table extrn_connections_terms: Total expected rows (approximate): 0
0002.157 (0) Table extrn_connections_terms: Total rows added: 1 in 0.00 seconds
0002.158 (0) Table extrn_connections_terms: finishing file (backup_2019-11-07-1438_Espace_Extranet_515ce9640236-db-table-extrn_connections_terms.table.gz - 0.4 KB)
0002.179 (0) Table extrn_cpk_wpcsv_export_queue: Total expected rows (approximate): 0
0002.181 (0) Table extrn_cpk_wpcsv_export_queue: Total rows added: 0 in 0.00 seconds
0002.183 (0) Table extrn_cpk_wpcsv_export_queue: finishing file (backup_2019-11-07-1438_Espace_Extranet_515ce9640236-db-table-extrn_cpk_wpcsv_export_queue.table.gz - 0.3 KB)
0002.187 (0) Table extrn_cpk_wpcsv_log: Total expected rows (approximate): 3
0002.190 (0) Table extrn_cpk_wpcsv_log: Total rows added: 3 in 0.00 seconds
0002.191 (0) Table extrn_cpk_wpcsv_log: finishing file (backup_2019-11-07-1438_Espace_Extranet_515ce9640236-db-table-extrn_cpk_wpcsv_log.table.gz - 0.5 KB)
0002.198 (0) Table extrn_dlm_order: Total expected rows (approximate): 0
0002.200 (0) Table extrn_dlm_order: Total rows added: 0 in 0.00 seconds
0002.201 (0) Table extrn_dlm_order: finishing file (backup_2019-11-07-1438_Espace_Extranet_515ce9640236-db-table-extrn_dlm_order.table.gz - 0.4 KB)
0002.205 (0) Table extrn_dlm_order_customer: Total expected rows (approximate): 0
0002.208 (0) Table extrn_dlm_order_customer: Total rows added: 0 in 0.00 seconds
0002.209 (0) Table extrn_dlm_order_customer: finishing file (backup_2019-11-07-1438_Espace_Extranet_515ce9640236-db-table-extrn_dlm_order_customer.table.gz - 0.5 KB)
0002.214 (0) Table extrn_dlm_order_item: Total expected rows (approximate): 0
0002.216 (0) Table extrn_dlm_order_item: Total rows added: 0 in 0.00 seconds
0002.218 (0) Table extrn_dlm_order_item: finishing file (backup_2019-11-07-1438_Espace_Extranet_515ce9640236-db-table-extrn_dlm_order_item.table.gz - 0.4 KB)
0002.222 (0) Table extrn_dlm_order_transaction: Total expected rows (approximate): 0
0002.225 (0) Table extrn_dlm_order_transaction: Total rows added: 0 in 0.00 seconds
0002.226 (0) Table extrn_dlm_order_transaction: finishing file (backup_2019-11-07-1438_Espace_Extranet_515ce9640236-db-table-extrn_dlm_order_transaction.table.gz - 0.5 KB)
0002.231 (0) Table extrn_dlm_session: Total expected rows (approximate): 0
0002.233 (0) Table extrn_dlm_session: Total rows added: 0 in 0.00 seconds
0002.237 (0) Table extrn_dlm_session: finishing file (backup_2019-11-07-1438_Espace_Extranet_515ce9640236-db-table-extrn_dlm_session.table.gz - 0.3 KB)
0002.247 (0) Table extrn_download_log: Total expected rows (approximate): 0
0002.250 (0) Table extrn_download_log: Total rows added: 1 in 0.00 seconds
0002.252 (0) Table extrn_download_log: finishing file (backup_2019-11-07-1438_Espace_Extranet_515ce9640236-db-table-extrn_download_log.table.gz - 0.6 KB)
0002.257 (0) Table extrn_em_bookings: Total expected rows (approximate): 9
0002.261 (0) Table extrn_em_bookings: Total rows added: 12 in 0.00 seconds
0002.262 (0) Table extrn_em_bookings: finishing file (backup_2019-11-07-1438_Espace_Extranet_515ce9640236-db-table-extrn_em_bookings.table.gz - 0.7 KB)
0002.267 (0) Table extrn_em_events: Total expected rows (approximate): 7
0002.271 (0) Table extrn_em_events: Total rows added: 9 in 0.00 seconds
0002.272 (0) Table extrn_em_events: finishing file (backup_2019-11-07-1438_Espace_Extranet_515ce9640236-db-table-extrn_em_events.table.gz - 1.9 KB)
0002.277 (0) Table extrn_em_locations: Total expected rows (approximate): 2
0002.281 (0) Table extrn_em_locations: Total rows added: 6 in 0.00 seconds
0002.282 (0) Table extrn_em_locations: finishing file (backup_2019-11-07-1438_Espace_Extranet_515ce9640236-db-table-extrn_em_locations.table.gz - 0.8 KB)
0002.287 (0) Table extrn_em_meta: Total expected rows (approximate): 0
0002.289 (0) Table extrn_em_meta: Total rows added: 0 in 0.00 seconds
0002.291 (0) Table extrn_em_meta: finishing file (backup_2019-11-07-1438_Espace_Extranet_515ce9640236-db-table-extrn_em_meta.table.gz - 0.4 KB)
0002.295 (0) Table extrn_em_tickets: Total expected rows (approximate): 5
0002.298 (0) Table extrn_em_tickets: Total rows added: 8 in 0.00 seconds
0002.299 (0) Table extrn_em_tickets: finishing file (backup_2019-11-07-1438_Espace_Extranet_515ce9640236-db-table-extrn_em_tickets.table.gz - 0.6 KB)
0002.304 (0) Table extrn_em_tickets_bookings: Total expected rows (approximate): 9
0002.307 (0) Table extrn_em_tickets_bookings: Total rows added: 12 in 0.00 seconds
0002.308 (0) Table extrn_em_tickets_bookings: finishing file (backup_2019-11-07-1438_Espace_Extranet_515ce9640236-db-table-extrn_em_tickets_bookings.table.gz - 0.5 KB)
0002.313 (0) Table extrn_fb3d_pages: Total expected rows (approximate): 0
0002.316 (0) Table extrn_fb3d_pages: Total rows added: 0 in 0.00 seconds
0002.318 (0) Table extrn_fb3d_pages: finishing file (backup_2019-11-07-1438_Espace_Extranet_515ce9640236-db-table-extrn_fb3d_pages.table.gz - 0.4 KB)
0002.322 (0) Table extrn_gg_attributes: Total expected rows (approximate): 0
0002.324 (0) Table extrn_gg_attributes: Total rows added: 0 in 0.00 seconds
0002.326 (0) Table extrn_gg_attributes: finishing file (backup_2019-11-07-1438_Espace_Extranet_515ce9640236-db-table-extrn_gg_attributes.table.gz - 0.3 KB)
0002.334 (0) Table extrn_gg_galleries: Total expected rows (approximate): 0
0002.337 (0) Table extrn_gg_galleries: Total rows added: 1 in 0.00 seconds
0002.339 (0) Table extrn_gg_galleries: finishing file (backup_2019-11-07-1438_Espace_Extranet_515ce9640236-db-table-extrn_gg_galleries.table.gz - 0.3 KB)
0002.344 (0) Table extrn_gg_galleries_resources: Total expected rows (approximate): 0
0002.347 (0) Table extrn_gg_galleries_resources: Total rows added: 0 in 0.00 seconds
0002.348 (0) Table extrn_gg_galleries_resources: finishing file (backup_2019-11-07-1438_Espace_Extranet_515ce9640236-db-table-extrn_gg_galleries_resources.table.gz - 0.3 KB)
0002.354 (0) Table extrn_gg_photos: Total expected rows (approximate): 0
0002.356 (0) Table extrn_gg_photos: Total rows added: 0 in 0.00 seconds
0002.357 (0) Table extrn_gg_photos: finishing file (backup_2019-11-07-1438_Espace_Extranet_515ce9640236-db-table-extrn_gg_photos.table.gz - 0.3 KB)
0002.363 (0) Table extrn_gg_settings_sets: Total expected rows (approximate): 0
0002.365 (0) Table extrn_gg_settings_sets: Total rows added: 1 in 0.00 seconds
0002.367 (0) Table extrn_gg_settings_sets: finishing file (backup_2019-11-07-1438_Espace_Extranet_515ce9640236-db-table-extrn_gg_settings_sets.table.gz - 2.1 KB)
0002.371 (0) Table extrn_gg_tags: Total expected rows (approximate): 0
0002.374 (0) Table extrn_gg_tags: Total rows added: 0 in 0.00 seconds
0002.375 (0) Table extrn_gg_tags: finishing file (backup_2019-11-07-1438_Espace_Extranet_515ce9640236-db-table-extrn_gg_tags.table.gz - 0.3 KB)
0002.380 (0) Table extrn_gp_glossaries: Total expected rows (approximate): 0
0002.382 (0) Table extrn_gp_glossaries: Total rows added: 0 in 0.00 seconds
0002.384 (0) Table extrn_gp_glossaries: finishing file (backup_2019-11-07-1438_Espace_Extranet_515ce9640236-db-table-extrn_gp_glossaries.table.gz - 0.3 KB)
0002.389 (0) Table extrn_gp_glossary_entries: Total expected rows (approximate): 0
0002.391 (0) Table extrn_gp_glossary_entries: Total rows added: 0 in 0.00 seconds
0002.392 (0) Table extrn_gp_glossary_entries: finishing file (backup_2019-11-07-1438_Espace_Extranet_515ce9640236-db-table-extrn_gp_glossary_entries.table.gz - 0.4 KB)
0002.397 (0) Table extrn_gp_meta: Total expected rows (approximate): 0
0002.399 (0) Table extrn_gp_meta: Total rows added: 0 in 0.00 seconds
0002.401 (0) Table extrn_gp_meta: finishing file (backup_2019-11-07-1438_Espace_Extranet_515ce9640236-db-table-extrn_gp_meta.table.gz - 0.4 KB)
0002.405 (0) Table extrn_gp_originals: Total expected rows (approximate): 0
0002.407 (0) Table extrn_gp_originals: Total rows added: 0 in 0.00 seconds
0002.409 (0) Table extrn_gp_originals: finishing file (backup_2019-11-07-1438_Espace_Extranet_515ce9640236-db-table-extrn_gp_originals.table.gz - 0.5 KB)
0002.414 (0) Table extrn_gp_permissions: Total expected rows (approximate): 0
0002.416 (0) Table extrn_gp_permissions: Total rows added: 1 in 0.00 seconds
0002.417 (0) Table extrn_gp_permissions: finishing file (backup_2019-11-07-1438_Espace_Extranet_515ce9640236-db-table-extrn_gp_permissions.table.gz - 0.4 KB)
0002.422 (0) Table extrn_gp_projects: Total expected rows (approximate): 0
0002.424 (0) Table extrn_gp_projects: Total rows added: 0 in 0.00 seconds
0002.425 (0) Table extrn_gp_projects: finishing file (backup_2019-11-07-1438_Espace_Extranet_515ce9640236-db-table-extrn_gp_projects.table.gz - 0.4 KB)
0002.430 (0) Table extrn_gp_translation_sets: Total expected rows (approximate): 0
0002.432 (0) Table extrn_gp_translation_sets: Total rows added: 0 in 0.00 seconds
0002.434 (0) Table extrn_gp_translation_sets: finishing file (backup_2019-11-07-1438_Espace_Extranet_515ce9640236-db-table-extrn_gp_translation_sets.table.gz - 0.4 KB)
0002.438 (0) Table extrn_gp_translations: Total expected rows (approximate): 0
0002.440 (0) Table extrn_gp_translations: Total rows added: 0 in 0.00 seconds
0002.442 (0) Table extrn_gp_translations: finishing file (backup_2019-11-07-1438_Espace_Extranet_515ce9640236-db-table-extrn_gp_translations.table.gz - 0.5 KB)
0002.446 (0) Table extrn_importer_files: Total expected rows (approximate): 0
0002.449 (0) Table extrn_importer_files: Total rows added: 1 in 0.00 seconds
0002.450 (0) Table extrn_importer_files: finishing file (backup_2019-11-07-1438_Espace_Extranet_515ce9640236-db-table-extrn_importer_files.table.gz - 0.4 KB)
0002.455 (0) Table extrn_importer_log: Total expected rows (approximate): 0
0002.457 (0) Table extrn_importer_log: Total rows added: 0 in 0.00 seconds
0002.459 (0) Table extrn_importer_log: finishing file (backup_2019-11-07-1438_Espace_Extranet_515ce9640236-db-table-extrn_importer_log.table.gz - 0.4 KB)
0002.464 (0) Table extrn_nf3_action_meta: Total expected rows (approximate): 346
0002.477 (0) Table extrn_nf3_action_meta: Total rows added: 346 in 0.01 seconds
0002.479 (0) Table extrn_nf3_action_meta: finishing file (backup_2019-11-07-1438_Espace_Extranet_515ce9640236-db-table-extrn_nf3_action_meta.table.gz - 3.4 KB)
0002.484 (0) Table extrn_nf3_actions: Total expected rows (approximate): 15
0002.487 (0) Table extrn_nf3_actions: Total rows added: 16 in 0.00 seconds
0002.489 (0) Table extrn_nf3_actions: finishing file (backup_2019-11-07-1438_Espace_Extranet_515ce9640236-db-table-extrn_nf3_actions.table.gz - 0.7 KB)
0002.494 (0) Table extrn_nf3_chunks: Total expected rows (approximate): 0
0002.496 (0) Table extrn_nf3_chunks: Total rows added: 0 in 0.00 seconds
0002.498 (0) Table extrn_nf3_chunks: finishing file (backup_2019-11-07-1438_Espace_Extranet_515ce9640236-db-table-extrn_nf3_chunks.table.gz - 0.3 KB)
0002.503 (0) Table extrn_nf3_field_meta: Total expected rows (approximate): 460
0002.520 (0) Table extrn_nf3_field_meta: Total rows added: 460 in 0.02 seconds
0002.522 (0) Table extrn_nf3_field_meta: finishing file (backup_2019-11-07-1438_Espace_Extranet_515ce9640236-db-table-extrn_nf3_field_meta.table.gz - 4.1 KB)
0002.527 (0) Table extrn_nf3_fields: Total expected rows (approximate): 16
0002.531 (0) Table extrn_nf3_fields: Total rows added: 18 in 0.00 seconds
0002.532 (0) Table extrn_nf3_fields: finishing file (backup_2019-11-07-1438_Espace_Extranet_515ce9640236-db-table-extrn_nf3_fields.table.gz - 0.8 KB)
0002.537 (0) Table extrn_nf3_form_meta: Total expected rows (approximate): 166
0002.544 (0) Table extrn_nf3_form_meta: Total rows added: 166 in 0.01 seconds
0002.546 (0) Table extrn_nf3_form_meta: finishing file (backup_2019-11-07-1438_Espace_Extranet_515ce9640236-db-table-extrn_nf3_form_meta.table.gz - 2.1 KB)
0002.550 (0) Table extrn_nf3_forms: Total expected rows (approximate): 4
0002.553 (0) Table extrn_nf3_forms: Total rows added: 5 in 0.00 seconds
0002.555 (0) Table extrn_nf3_forms: finishing file (backup_2019-11-07-1438_Espace_Extranet_515ce9640236-db-table-extrn_nf3_forms.table.gz - 0.6 KB)
0002.559 (0) Table extrn_nf3_object_meta: Total expected rows (approximate): 0
0002.561 (0) Table extrn_nf3_object_meta: Total rows added: 0 in 0.00 seconds
0002.563 (0) Table extrn_nf3_object_meta: finishing file (backup_2019-11-07-1438_Espace_Extranet_515ce9640236-db-table-extrn_nf3_object_meta.table.gz - 0.3 KB)
0002.568 (0) Table extrn_nf3_objects: Total expected rows (approximate): 0
0002.571 (0) Table extrn_nf3_objects: Total rows added: 0 in 0.00 seconds
0002.572 (0) Table extrn_nf3_objects: finishing file (backup_2019-11-07-1438_Espace_Extranet_515ce9640236-db-table-extrn_nf3_objects.table.gz - 0.3 KB)
0002.577 (0) Table extrn_nf3_relationships: Total expected rows (approximate): 0
0002.579 (0) Table extrn_nf3_relationships: Total rows added: 0 in 0.00 seconds
0002.582 (0) Table extrn_nf3_relationships: finishing file (backup_2019-11-07-1438_Espace_Extranet_515ce9640236-db-table-extrn_nf3_relationships.table.gz - 0.4 KB)
0002.587 (0) Table extrn_nf3_upgrades: Total expected rows (approximate): 5
0002.591 (0) Table extrn_nf3_upgrades: Total rows added: 5 in 0.00 seconds
0002.593 (0) Table extrn_nf3_upgrades: finishing file (backup_2019-11-07-1438_Espace_Extranet_515ce9640236-db-table-extrn_nf3_upgrades.table.gz - 3.9 KB)
0002.597 (0) Table extrn_ngg_album: Total expected rows (approximate): 0
0002.600 (0) Table extrn_ngg_album: Total rows added: 0 in 0.00 seconds
0002.601 (0) Table extrn_ngg_album: finishing file (backup_2019-11-07-1438_Espace_Extranet_515ce9640236-db-table-extrn_ngg_album.table.gz - 0.4 KB)
0002.605 (0) Table extrn_ngg_gallery: Total expected rows (approximate): 16
0002.609 (0) Table extrn_ngg_gallery: Total rows added: 16 in 0.00 seconds
0002.610 (0) Table extrn_ngg_gallery: finishing file (backup_2019-11-07-1438_Espace_Extranet_515ce9640236-db-table-extrn_ngg_gallery.table.gz - 0.6 KB)
0002.615 (0) Table extrn_ngg_pictures: Total expected rows (approximate): 16
0002.619 (0) Table extrn_ngg_pictures: Total rows added: 18 in 0.00 seconds
0002.620 (0) Table extrn_ngg_pictures: finishing file (backup_2019-11-07-1438_Espace_Extranet_515ce9640236-db-table-extrn_ngg_pictures.table.gz - 3.1 KB)
0002.625 (0) Table extrn_pmxi_files: Total expected rows (approximate): 0
0002.627 (0) Table extrn_pmxi_files: Total rows added: 1 in 0.00 seconds
0002.629 (0) Table extrn_pmxi_files: finishing file (backup_2019-11-07-1438_Espace_Extranet_515ce9640236-db-table-extrn_pmxi_files.table.gz - 0.5 KB)
0002.633 (0) Table extrn_pmxi_history: Total expected rows (approximate): 0
0002.635 (0) Table extrn_pmxi_history: Total rows added: 1 in 0.00 seconds
0002.637 (0) Table extrn_pmxi_history: finishing file (backup_2019-11-07-1438_Espace_Extranet_515ce9640236-db-table-extrn_pmxi_history.table.gz - 0.5 KB)
0002.641 (0) Table extrn_pmxi_images: Total expected rows (approximate): 0
0002.643 (0) Table extrn_pmxi_images: Total rows added: 0 in 0.00 seconds
0002.645 (0) Table extrn_pmxi_images: finishing file (backup_2019-11-07-1438_Espace_Extranet_515ce9640236-db-table-extrn_pmxi_images.table.gz - 0.3 KB)
0002.649 (0) Table extrn_pmxi_imports: Total expected rows (approximate): 0
0002.655 (0) Table extrn_pmxi_imports: Total rows added: 1 in 0.00 seconds
0002.657 (0) Table extrn_pmxi_imports: finishing file (backup_2019-11-07-1438_Espace_Extranet_515ce9640236-db-table-extrn_pmxi_imports.table.gz - 2.4 KB)
0002.661 (0) Table extrn_pmxi_posts: Total expected rows (approximate): 69
0002.666 (0) Table extrn_pmxi_posts: Total rows added: 69 in 0.00 seconds
0002.668 (0) Table extrn_pmxi_posts: finishing file (backup_2019-11-07-1438_Espace_Extranet_515ce9640236-db-table-extrn_pmxi_posts.table.gz - 1.9 KB)
0002.672 (0) Table extrn_pmxi_templates: Total expected rows (approximate): 0
0002.674 (0) Table extrn_pmxi_templates: Total rows added: 0 in 0.00 seconds
0002.676 (0) Table extrn_pmxi_templates: finishing file (backup_2019-11-07-1438_Espace_Extranet_515ce9640236-db-table-extrn_pmxi_templates.table.gz - 0.4 KB)
0002.680 (0) Table extrn_redirection_404: Total expected rows (approximate): 63
0002.687 (0) Table extrn_redirection_404: Total rows added: 67 in 0.01 seconds
0002.688 (0) Table extrn_redirection_404: finishing file (backup_2019-11-07-1438_Espace_Extranet_515ce9640236-db-table-extrn_redirection_404.table.gz - 1.6 KB)
0002.693 (0) Table extrn_redirection_groups: Total expected rows (approximate): 2
0002.695 (0) Table extrn_redirection_groups: Total rows added: 2 in 0.00 seconds
0002.696 (0) Table extrn_redirection_groups: finishing file (backup_2019-11-07-1438_Espace_Extranet_515ce9640236-db-table-extrn_redirection_groups.table.gz - 0.5 KB)
0002.701 (0) Table extrn_redirection_items: Total expected rows (approximate): 11
0002.704 (0) Table extrn_redirection_items: Total rows added: 12 in 0.00 seconds
0002.706 (0) Table extrn_redirection_items: finishing file (backup_2019-11-07-1438_Espace_Extranet_515ce9640236-db-table-extrn_redirection_items.table.gz - 1 KB)
0002.710 (0) Table extrn_redirection_logs: Total expected rows (approximate): 0
0002.713 (0) Table extrn_redirection_logs: Total rows added: 1 in 0.00 seconds
0002.714 (0) Table extrn_redirection_logs: finishing file (backup_2019-11-07-1438_Espace_Extranet_515ce9640236-db-table-extrn_redirection_logs.table.gz - 0.6 KB)
0002.719 (0) Table extrn_redirects: Total expected rows (approximate): 0
0002.721 (0) Table extrn_redirects: Total rows added: 1 in 0.00 seconds
0002.723 (0) Table extrn_redirects: finishing file (backup_2019-11-07-1438_Espace_Extranet_515ce9640236-db-table-extrn_redirects.table.gz - 0.4 KB)
0002.727 (0) Table extrn_relevanssi: Total expected rows (approximate): 3299
0003.197 (0) Table extrn_relevanssi: Total rows added: 3335 in 0.47 seconds
0003.199 (0) Table extrn_relevanssi: finishing file (backup_2019-11-07-1438_Espace_Extranet_515ce9640236-db-table-extrn_relevanssi.table.gz - 21.4 KB)
0003.203 (0) Table extrn_relevanssi_log: Total expected rows (approximate): 0
0003.206 (0) Table extrn_relevanssi_log: Total rows added: 0 in 0.00 seconds
0003.207 (0) Table extrn_relevanssi_log: finishing file (backup_2019-11-07-1438_Espace_Extranet_515ce9640236-db-table-extrn_relevanssi_log.table.gz - 0.4 KB)
0003.213 (0) Table extrn_relevanssi_stopwords: Total expected rows (approximate): 725
0003.223 (0) Table extrn_relevanssi_stopwords: Total rows added: 725 in 0.01 seconds
0003.224 (0) Table extrn_relevanssi_stopwords: finishing file (backup_2019-11-07-1438_Espace_Extranet_515ce9640236-db-table-extrn_relevanssi_stopwords.table.gz - 2.6 KB)
0003.229 (0) Table extrn_sm_sessions: Total expected rows (approximate): 0
0003.231 (0) Table extrn_sm_sessions: Total rows added: 0 in 0.00 seconds
0003.233 (0) Table extrn_sm_sessions: finishing file (backup_2019-11-07-1438_Espace_Extranet_515ce9640236-db-table-extrn_sm_sessions.table.gz - 0.4 KB)
0003.237 (0) Table extrn_statistics_exclusions: Total expected rows (approximate): 0
0003.240 (0) Table extrn_statistics_exclusions: Total rows added: 0 in 0.00 seconds
0003.241 (0) Table extrn_statistics_exclusions: finishing file (backup_2019-11-07-1438_Espace_Extranet_515ce9640236-db-table-extrn_statistics_exclusions.table.gz - 0.3 KB)
0003.246 (0) Table extrn_statistics_historical: Total expected rows (approximate): 0
0003.248 (0) Table extrn_statistics_historical: Total rows added: 0 in 0.00 seconds
0003.249 (0) Table extrn_statistics_historical: finishing file (backup_2019-11-07-1438_Espace_Extranet_515ce9640236-db-table-extrn_statistics_historical.table.gz - 0.3 KB)
0003.254 (0) Table extrn_statistics_pages: Total expected rows (approximate): 0
0003.256 (0) Table extrn_statistics_pages: Total rows added: 0 in 0.00 seconds
0003.258 (0) Table extrn_statistics_pages: finishing file (backup_2019-11-07-1438_Espace_Extranet_515ce9640236-db-table-extrn_statistics_pages.table.gz - 0.4 KB)
0003.263 (0) Table extrn_statistics_search: Total expected rows (approximate): 0
0003.266 (0) Table extrn_statistics_search: Total rows added: 0 in 0.00 seconds
0003.267 (0) Table extrn_statistics_search: finishing file (backup_2019-11-07-1438_Espace_Extranet_515ce9640236-db-table-extrn_statistics_search.table.gz - 0.3 KB)
0003.272 (0) Table extrn_statistics_useronline: Total expected rows (approximate): 0
0003.274 (0) Table extrn_statistics_useronline: Total rows added: 0 in 0.00 seconds
0003.275 (0) Table extrn_statistics_useronline: finishing file (backup_2019-11-07-1438_Espace_Extranet_515ce9640236-db-table-extrn_statistics_useronline.table.gz - 0.4 KB)
0003.280 (0) Table extrn_statistics_visit: Total expected rows (approximate): 2
0003.282 (0) Table extrn_statistics_visit: Total rows added: 2 in 0.00 seconds
0003.284 (0) Table extrn_statistics_visit: finishing file (backup_2019-11-07-1438_Espace_Extranet_515ce9640236-db-table-extrn_statistics_visit.table.gz - 0.4 KB)
0003.289 (0) Table extrn_statistics_visitor: Total expected rows (approximate): 0
0003.291 (0) Table extrn_statistics_visitor: Total rows added: 1 in 0.00 seconds
0003.293 (0) Table extrn_statistics_visitor: finishing file (backup_2019-11-07-1438_Espace_Extranet_515ce9640236-db-table-extrn_statistics_visitor.table.gz - 0.6 KB)
0003.297 (0) Table extrn_supracsvparser_plugin_presets: Total expected rows (approximate): 0
0003.299 (0) Table extrn_supracsvparser_plugin_presets: Total rows added: 0 in 0.00 seconds
0003.300 (0) Table extrn_supracsvparser_plugin_presets: finishing file (backup_2019-11-07-1438_Espace_Extranet_515ce9640236-db-table-extrn_supracsvparser_plugin_presets.table.gz - 0.3 KB)
0003.305 (0) Table extrn_testutf1csv: Total expected rows (approximate): 90
0003.315 (0) Table extrn_testutf1csv: Total rows added: 90 in 0.01 seconds
0003.317 (0) Table extrn_testutf1csv: finishing file (backup_2019-11-07-1438_Espace_Extranet_515ce9640236-db-table-extrn_testutf1csv.table.gz - 4.6 KB)
0003.322 (0) Table extrn_testutfcsv: Total expected rows (approximate): 0
0003.324 (0) Table extrn_testutfcsv: Total rows added: 0 in 0.00 seconds
0003.326 (0) Table extrn_testutfcsv: finishing file (backup_2019-11-07-1438_Espace_Extranet_515ce9640236-db-table-extrn_testutfcsv.table.gz - 0.5 KB)
0003.330 (0) Table extrn_todolists_iptask: Total expected rows (approximate): 0
0003.334 (0) Table extrn_todolists_iptask: Total rows added: 0 in 0.00 seconds
0003.336 (0) Table extrn_todolists_iptask: finishing file (backup_2019-11-07-1438_Espace_Extranet_515ce9640236-db-table-extrn_todolists_iptask.table.gz - 0.3 KB)
0003.343 (0) Table extrn_todolists_usertask: Total expected rows (approximate): 0
0003.345 (0) Table extrn_todolists_usertask: Total rows added: 0 in 0.00 seconds
0003.346 (0) Table extrn_todolists_usertask: finishing file (backup_2019-11-07-1438_Espace_Extranet_515ce9640236-db-table-extrn_todolists_usertask.table.gz - 0.3 KB)
0003.351 (0) Table extrn_toolset_post_guid_id: Total expected rows (approximate): 0
0003.353 (0) Table extrn_toolset_post_guid_id: Total rows added: 0 in 0.00 seconds
0003.355 (0) Table extrn_toolset_post_guid_id: finishing file (backup_2019-11-07-1438_Espace_Extranet_515ce9640236-db-table-extrn_toolset_post_guid_id.table.gz - 0.3 KB)
0003.359 (0) Table extrn_uam_accessgroup_to_object: Total expected rows (approximate): 102
0003.365 (0) Table extrn_uam_accessgroup_to_object: Total rows added: 106 in 0.00 seconds
0003.366 (0) Table extrn_uam_accessgroup_to_object: finishing file (backup_2019-11-07-1438_Espace_Extranet_515ce9640236-db-table-extrn_uam_accessgroup_to_object.table.gz - 0.9 KB)
0003.371 (0) Table extrn_uam_accessgroups: Total expected rows (approximate): 25
0003.374 (0) Table extrn_uam_accessgroups: Total rows added: 27 in 0.00 seconds
0003.375 (0) Table extrn_uam_accessgroups: finishing file (backup_2019-11-07-1438_Espace_Extranet_515ce9640236-db-table-extrn_uam_accessgroups.table.gz - 1 KB)
0003.382 (0) Table extrn_webtechglobal_schedule: Total expected rows (approximate): 0
0003.384 (0) Table extrn_webtechglobal_schedule: Total rows added: 0 in 0.00 seconds
0003.386 (0) Table extrn_webtechglobal_schedule: finishing file (backup_2019-11-07-1438_Espace_Extranet_515ce9640236-db-table-extrn_webtechglobal_schedule.table.gz - 0.5 KB)
0003.390 (0) Table extrn_wise_chat_actions: Total expected rows (approximate): 88
0003.394 (0) Table extrn_wise_chat_actions: Total rows added: 91 in 0.00 seconds
0003.396 (0) Table extrn_wise_chat_actions: finishing file (backup_2019-11-07-1438_Espace_Extranet_515ce9640236-db-table-extrn_wise_chat_actions.table.gz - 1.4 KB)
0003.400 (0) Table extrn_wise_chat_bans: Total expected rows (approximate): 0
0003.402 (0) Table extrn_wise_chat_bans: Total rows added: 0 in 0.00 seconds
0003.404 (0) Table extrn_wise_chat_bans: finishing file (backup_2019-11-07-1438_Espace_Extranet_515ce9640236-db-table-extrn_wise_chat_bans.table.gz - 0.3 KB)
0003.408 (0) Table extrn_wise_chat_channel_users: Total expected rows (approximate): 1
0003.411 (0) Table extrn_wise_chat_channel_users: Total rows added: 1 in 0.00 seconds
0003.412 (0) Table extrn_wise_chat_channel_users: finishing file (backup_2019-11-07-1438_Espace_Extranet_515ce9640236-db-table-extrn_wise_chat_channel_users.table.gz - 0.4 KB)
0003.417 (0) Table extrn_wise_chat_channels: Total expected rows (approximate): 9
0003.419 (0) Table extrn_wise_chat_channels: Total rows added: 10 in 0.00 seconds
0003.421 (0) Table extrn_wise_chat_channels: finishing file (backup_2019-11-07-1438_Espace_Extranet_515ce9640236-db-table-extrn_wise_chat_channels.table.gz - 0.5 KB)
0003.427 (0) Table extrn_wise_chat_kicks: Total expected rows (approximate): 0
0003.429 (0) Table extrn_wise_chat_kicks: Total rows added: 0 in 0.00 seconds
0003.431 (0) Table extrn_wise_chat_kicks: finishing file (backup_2019-11-07-1438_Espace_Extranet_515ce9640236-db-table-extrn_wise_chat_kicks.table.gz - 0.3 KB)
0003.435 (0) Table extrn_wise_chat_messages: Total expected rows (approximate): 3
0003.438 (0) Table extrn_wise_chat_messages: Total rows added: 4 in 0.00 seconds
0003.439 (0) Table extrn_wise_chat_messages: finishing file (backup_2019-11-07-1438_Espace_Extranet_515ce9640236-db-table-extrn_wise_chat_messages.table.gz - 0.5 KB)
0003.444 (0) Table extrn_wise_chat_users: Total expected rows (approximate): 129
0003.452 (0) Table extrn_wise_chat_users: Total rows added: 181 in 0.01 seconds
0003.454 (0) Table extrn_wise_chat_users: finishing file (backup_2019-11-07-1438_Espace_Extranet_515ce9640236-db-table-extrn_wise_chat_users.table.gz - 4.3 KB)
0003.459 (0) Table extrn_wpfront_ure_content_shortcodes: Total expected rows (approximate): 0
0003.461 (0) Table extrn_wpfront_ure_content_shortcodes: Total rows added: 0 in 0.00 seconds
0003.463 (0) Table extrn_wpfront_ure_content_shortcodes: finishing file (backup_2019-11-07-1438_Espace_Extranet_515ce9640236-db-table-extrn_wpfront_ure_content_shortcodes.table.gz - 0.3 KB)
0003.468 (0) Table extrn_wpfront_ure_login_redirect: Total expected rows (approximate): 0
0003.470 (0) Table extrn_wpfront_ure_login_redirect: Total rows added: 0 in 0.00 seconds
0003.471 (0) Table extrn_wpfront_ure_login_redirect: finishing file (backup_2019-11-07-1438_Espace_Extranet_515ce9640236-db-table-extrn_wpfront_ure_login_redirect.table.gz - 0.4 KB)
0003.476 (0) Table extrn_wpfront_ure_menu_editor: Total expected rows (approximate): 0
0003.478 (0) Table extrn_wpfront_ure_menu_editor: Total rows added: 0 in 0.00 seconds
0003.480 (0) Table extrn_wpfront_ure_menu_editor: finishing file (backup_2019-11-07-1438_Espace_Extranet_515ce9640236-db-table-extrn_wpfront_ure_menu_editor.table.gz - 0.3 KB)
0003.485 (0) Table extrn_wpfront_ure_options: Total expected rows (approximate): 40
0003.488 (0) Table extrn_wpfront_ure_options: Total rows added: 44 in 0.00 seconds
0003.489 (0) Table extrn_wpfront_ure_options: finishing file (backup_2019-11-07-1438_Espace_Extranet_515ce9640236-db-table-extrn_wpfront_ure_options.table.gz - 3.3 KB)
0003.495 (0) Table extrn_wpfront_ure_post_type_permissions: Total expected rows (approximate): 105
0003.500 (0) Table extrn_wpfront_ure_post_type_permissions: Total rows added: 115 in 0.00 seconds
0003.502 (0) Table extrn_wpfront_ure_post_type_permissions: finishing file (backup_2019-11-07-1438_Espace_Extranet_515ce9640236-db-table-extrn_wpfront_ure_post_type_permissions.table.gz - 1.3 KB)
0003.504 (0) Skipping table (lacks our prefix (extrn_)): smackuci_events
0003.506 (0) Skipping table (lacks our prefix (extrn_)): smackuci_history
0003.507 (0) Skipping table (lacks our prefix (extrn_)): wp_ultimate_csv_importer_log_values
0003.508 (0) Skipping table (lacks our prefix (extrn_)): wp_ultimate_csv_importer_manageshortcodes
0003.509 (0) Skipping table (lacks our prefix (extrn_)): wp_ultimate_csv_importer_shortcodes_statusrel
0003.513 (0) backup_2019-11-07-1438_Espace_Extranet_515ce9640236-db-table-extrn_options.table.gz (1/152): adding to final database dump
0004.342 (0) backup_2019-11-07-1438_Espace_Extranet_515ce9640236-db-table-extrn_users.table.gz (2/152): adding to final database dump
0004.345 (0) backup_2019-11-07-1438_Espace_Extranet_515ce9640236-db-table-extrn_usermeta.table.gz (3/152): adding to final database dump
0004.353 (0) backup_2019-11-07-1438_Espace_Extranet_515ce9640236-db-table-extrn_commentmeta.table.gz (4/152): adding to final database dump
0004.355 (0) backup_2019-11-07-1438_Espace_Extranet_515ce9640236-db-table-extrn_comments.table.gz (5/152): adding to final database dump
0004.357 (0) backup_2019-11-07-1438_Espace_Extranet_515ce9640236-db-table-extrn_links.table.gz (6/152): adding to final database dump
0004.358 (0) backup_2019-11-07-1438_Espace_Extranet_515ce9640236-db-table-extrn_postmeta.table.gz (7/152): adding to final database dump
0004.467 (0) backup_2019-11-07-1438_Espace_Extranet_515ce9640236-db-table-extrn_posts.table.gz (8/152): adding to final database dump
0004.516 (0) backup_2019-11-07-1438_Espace_Extranet_515ce9640236-db-table-extrn_term_relationships.table.gz (9/152): adding to final database dump
0004.519 (0) backup_2019-11-07-1438_Espace_Extranet_515ce9640236-db-table-extrn_term_taxonomy.table.gz (10/152): adding to final database dump
0004.523 (0) backup_2019-11-07-1438_Espace_Extranet_515ce9640236-db-table-extrn_termmeta.table.gz (11/152): adding to final database dump
0004.526 (0) backup_2019-11-07-1438_Espace_Extranet_515ce9640236-db-table-extrn_terms.table.gz (12/152): adding to final database dump
0004.529 (0) backup_2019-11-07-1438_Espace_Extranet_515ce9640236-db-table-extrn_ahm_download_stats.table.gz (13/152): adding to final database dump
0004.531 (0) backup_2019-11-07-1438_Espace_Extranet_515ce9640236-db-table-extrn_ahm_emails.table.gz (14/152): adding to final database dump
0004.532 (0) backup_2019-11-07-1438_Espace_Extranet_515ce9640236-db-table-extrn_alm.table.gz (15/152): adding to final database dump
0004.534 (0) backup_2019-11-07-1438_Espace_Extranet_515ce9640236-db-table-extrn_alm_unlimited.table.gz (16/152): adding to final database dump
0004.537 (0) backup_2019-11-07-1438_Espace_Extranet_515ce9640236-db-table-extrn_bookacti_activities.table.gz (17/152): adding to final database dump
0004.538 (0) backup_2019-11-07-1438_Espace_Extranet_515ce9640236-db-table-extrn_bookacti_booking_groups.table.gz (18/152): adding to final database dump
0004.540 (0) backup_2019-11-07-1438_Espace_Extranet_515ce9640236-db-table-extrn_bookacti_bookings.table.gz (19/152): adding to final database dump
0004.541 (0) backup_2019-11-07-1438_Espace_Extranet_515ce9640236-db-table-extrn_bookacti_event_groups.table.gz (20/152): adding to final database dump
0004.542 (0) backup_2019-11-07-1438_Espace_Extranet_515ce9640236-db-table-extrn_bookacti_events.table.gz (21/152): adding to final database dump
0004.544 (0) backup_2019-11-07-1438_Espace_Extranet_515ce9640236-db-table-extrn_bookacti_exceptions.table.gz (22/152): adding to final database dump
0004.546 (0) backup_2019-11-07-1438_Espace_Extranet_515ce9640236-db-table-extrn_bookacti_form_fields.table.gz (23/152): adding to final database dump
0004.547 (0) backup_2019-11-07-1438_Espace_Extranet_515ce9640236-db-table-extrn_bookacti_forms.table.gz (24/152): adding to final database dump
0004.549 (0) backup_2019-11-07-1438_Espace_Extranet_515ce9640236-db-table-extrn_bookacti_group_categories.table.gz (25/152): adding to final database dump
0004.550 (0) backup_2019-11-07-1438_Espace_Extranet_515ce9640236-db-table-extrn_bookacti_groups_events.table.gz (26/152): adding to final database dump
0004.551 (0) backup_2019-11-07-1438_Espace_Extranet_515ce9640236-db-table-extrn_bookacti_meta.table.gz (27/152): adding to final database dump
0004.554 (0) backup_2019-11-07-1438_Espace_Extranet_515ce9640236-db-table-extrn_bookacti_permissions.table.gz (28/152): adding to final database dump
0004.555 (0) backup_2019-11-07-1438_Espace_Extranet_515ce9640236-db-table-extrn_bookacti_templates.table.gz (29/152): adding to final database dump
0004.557 (0) backup_2019-11-07-1438_Espace_Extranet_515ce9640236-db-table-extrn_bookacti_templates_activities.table.gz (30/152): adding to final database dump
0004.558 (0) backup_2019-11-07-1438_Espace_Extranet_515ce9640236-db-table-extrn_booking.table.gz (31/152): adding to final database dump
0004.560 (0) backup_2019-11-07-1438_Espace_Extranet_515ce9640236-db-table-extrn_bookingdates.table.gz (32/152): adding to final database dump
0004.562 (0) backup_2019-11-07-1438_Espace_Extranet_515ce9640236-db-table-extrn_bwg_album.table.gz (33/152): adding to final database dump
0004.563 (0) backup_2019-11-07-1438_Espace_Extranet_515ce9640236-db-table-extrn_bwg_album_gallery.table.gz (34/152): adding to final database dump
0004.564 (0) backup_2019-11-07-1438_Espace_Extranet_515ce9640236-db-table-extrn_bwg_file_paths.table.gz (35/152): adding to final database dump
0004.566 (0) backup_2019-11-07-1438_Espace_Extranet_515ce9640236-db-table-extrn_bwg_gallery.table.gz (36/152): adding to final database dump
0004.568 (0) backup_2019-11-07-1438_Espace_Extranet_515ce9640236-db-table-extrn_bwg_image.table.gz (37/152): adding to final database dump
0004.569 (0) backup_2019-11-07-1438_Espace_Extranet_515ce9640236-db-table-extrn_bwg_image_comment.table.gz (38/152): adding to final database dump
0004.570 (0) backup_2019-11-07-1438_Espace_Extranet_515ce9640236-db-table-extrn_bwg_image_rate.table.gz (39/152): adding to final database dump
0004.571 (0) backup_2019-11-07-1438_Espace_Extranet_515ce9640236-db-table-extrn_bwg_image_tag.table.gz (40/152): adding to final database dump
0004.573 (0) backup_2019-11-07-1438_Espace_Extranet_515ce9640236-db-table-extrn_bwg_shortcode.table.gz (41/152): adding to final database dump
0004.574 (0) backup_2019-11-07-1438_Espace_Extranet_515ce9640236-db-table-extrn_bwg_theme.table.gz (42/152): adding to final database dump
0004.577 (0) backup_2019-11-07-1438_Espace_Extranet_515ce9640236-db-table-extrn_c2pprojects.table.gz (43/152): adding to final database dump
0004.578 (0) backup_2019-11-07-1438_Espace_Extranet_515ce9640236-db-table-extrn_c2psources.table.gz (44/152): adding to final database dump
0004.580 (0) backup_2019-11-07-1438_Espace_Extranet_515ce9640236-db-table-extrn_cfs_sessions.table.gz (45/152): adding to final database dump
0004.582 (0) backup_2019-11-07-1438_Espace_Extranet_515ce9640236-db-table-extrn_cfs_values.table.gz (46/152): adding to final database dump
0004.584 (0) backup_2019-11-07-1438_Espace_Extranet_515ce9640236-db-table-extrn_connections.table.gz (47/152): adding to final database dump
0004.585 (0) backup_2019-11-07-1438_Espace_Extranet_515ce9640236-db-table-extrn_connections_address.table.gz (48/152): adding to final database dump
0004.588 (0) backup_2019-11-07-1438_Espace_Extranet_515ce9640236-db-table-extrn_connections_date.table.gz (49/152): adding to final database dump
0004.590 (0) backup_2019-11-07-1438_Espace_Extranet_515ce9640236-db-table-extrn_connections_email.table.gz (50/152): adding to final database dump
0004.592 (0) backup_2019-11-07-1438_Espace_Extranet_515ce9640236-db-table-extrn_connections_link.table.gz (51/152): adding to final database dump
0004.593 (0) backup_2019-11-07-1438_Espace_Extranet_515ce9640236-db-table-extrn_connections_messenger.table.gz (52/152): adding to final database dump
0004.595 (0) backup_2019-11-07-1438_Espace_Extranet_515ce9640236-db-table-extrn_connections_meta.table.gz (53/152): adding to final database dump
0004.596 (0) backup_2019-11-07-1438_Espace_Extranet_515ce9640236-db-table-extrn_connections_phone.table.gz (54/152): adding to final database dump
0004.597 (0) backup_2019-11-07-1438_Espace_Extranet_515ce9640236-db-table-extrn_connections_social.table.gz (55/152): adding to final database dump
0004.598 (0) backup_2019-11-07-1438_Espace_Extranet_515ce9640236-db-table-extrn_connections_term_meta.table.gz (56/152): adding to final database dump
0004.600 (0) backup_2019-11-07-1438_Espace_Extranet_515ce9640236-db-table-extrn_connections_term_relationships.table.gz (57/152): adding to final database dump
0004.602 (0) backup_2019-11-07-1438_Espace_Extranet_515ce9640236-db-table-extrn_connections_term_taxonomy.table.gz (58/152): adding to final database dump
0004.603 (0) backup_2019-11-07-1438_Espace_Extranet_515ce9640236-db-table-extrn_connections_terms.table.gz (59/152): adding to final database dump
0004.605 (0) backup_2019-11-07-1438_Espace_Extranet_515ce9640236-db-table-extrn_cpk_wpcsv_export_queue.table.gz (60/152): adding to final database dump
0004.606 (0) backup_2019-11-07-1438_Espace_Extranet_515ce9640236-db-table-extrn_cpk_wpcsv_log.table.gz (61/152): adding to final database dump
0004.607 (0) backup_2019-11-07-1438_Espace_Extranet_515ce9640236-db-table-extrn_dlm_order.table.gz (62/152): adding to final database dump
0004.609 (0) backup_2019-11-07-1438_Espace_Extranet_515ce9640236-db-table-extrn_dlm_order_customer.table.gz (63/152): adding to final database dump
0004.610 (0) backup_2019-11-07-1438_Espace_Extranet_515ce9640236-db-table-extrn_dlm_order_item.table.gz (64/152): adding to final database dump
0004.612 (0) backup_2019-11-07-1438_Espace_Extranet_515ce9640236-db-table-extrn_dlm_order_transaction.table.gz (65/152): adding to final database dump
0004.614 (0) backup_2019-11-07-1438_Espace_Extranet_515ce9640236-db-table-extrn_dlm_session.table.gz (66/152): adding to final database dump
0004.615 (0) backup_2019-11-07-1438_Espace_Extranet_515ce9640236-db-table-extrn_download_log.table.gz (67/152): adding to final database dump
0004.617 (0) backup_2019-11-07-1438_Espace_Extranet_515ce9640236-db-table-extrn_em_bookings.table.gz (68/152): adding to final database dump
0004.619 (0) backup_2019-11-07-1438_Espace_Extranet_515ce9640236-db-table-extrn_em_events.table.gz (69/152): adding to final database dump
0004.621 (0) backup_2019-11-07-1438_Espace_Extranet_515ce9640236-db-table-extrn_em_locations.table.gz (70/152): adding to final database dump
0004.623 (0) backup_2019-11-07-1438_Espace_Extranet_515ce9640236-db-table-extrn_em_meta.table.gz (71/152): adding to final database dump
0004.625 (0) backup_2019-11-07-1438_Espace_Extranet_515ce9640236-db-table-extrn_em_tickets.table.gz (72/152): adding to final database dump
0004.627 (0) backup_2019-11-07-1438_Espace_Extranet_515ce9640236-db-table-extrn_em_tickets_bookings.table.gz (73/152): adding to final database dump
0004.628 (0) backup_2019-11-07-1438_Espace_Extranet_515ce9640236-db-table-extrn_fb3d_pages.table.gz (74/152): adding to final database dump
0004.630 (0) backup_2019-11-07-1438_Espace_Extranet_515ce9640236-db-table-extrn_gg_attributes.table.gz (75/152): adding to final database dump
0004.631 (0) backup_2019-11-07-1438_Espace_Extranet_515ce9640236-db-table-extrn_gg_galleries.table.gz (76/152): adding to final database dump
0004.633 (0) backup_2019-11-07-1438_Espace_Extranet_515ce9640236-db-table-extrn_gg_galleries_resources.table.gz (77/152): adding to final database dump
0004.635 (0) backup_2019-11-07-1438_Espace_Extranet_515ce9640236-db-table-extrn_gg_photos.table.gz (78/152): adding to final database dump
0004.637 (0) backup_2019-11-07-1438_Espace_Extranet_515ce9640236-db-table-extrn_gg_settings_sets.table.gz (79/152): adding to final database dump
0004.638 (0) backup_2019-11-07-1438_Espace_Extranet_515ce9640236-db-table-extrn_gg_tags.table.gz (80/152): adding to final database dump
0004.640 (0) backup_2019-11-07-1438_Espace_Extranet_515ce9640236-db-table-extrn_gp_glossaries.table.gz (81/152): adding to final database dump
0004.642 (0) backup_2019-11-07-1438_Espace_Extranet_515ce9640236-db-table-extrn_gp_glossary_entries.table.gz (82/152): adding to final database dump
0004.643 (0) backup_2019-11-07-1438_Espace_Extranet_515ce9640236-db-table-extrn_gp_meta.table.gz (83/152): adding to final database dump
0004.645 (0) backup_2019-11-07-1438_Espace_Extranet_515ce9640236-db-table-extrn_gp_originals.table.gz (84/152): adding to final database dump
0004.646 (0) backup_2019-11-07-1438_Espace_Extranet_515ce9640236-db-table-extrn_gp_permissions.table.gz (85/152): adding to final database dump
0004.648 (0) backup_2019-11-07-1438_Espace_Extranet_515ce9640236-db-table-extrn_gp_projects.table.gz (86/152): adding to final database dump
0004.650 (0) backup_2019-11-07-1438_Espace_Extranet_515ce9640236-db-table-extrn_gp_translation_sets.table.gz (87/152): adding to final database dump
0004.652 (0) backup_2019-11-07-1438_Espace_Extranet_515ce9640236-db-table-extrn_gp_translations.table.gz (88/152): adding to final database dump
0004.653 (0) backup_2019-11-07-1438_Espace_Extranet_515ce9640236-db-table-extrn_importer_files.table.gz (89/152): adding to final database dump
0004.655 (0) backup_2019-11-07-1438_Espace_Extranet_515ce9640236-db-table-extrn_importer_log.table.gz (90/152): adding to final database dump
0004.656 (0) backup_2019-11-07-1438_Espace_Extranet_515ce9640236-db-table-extrn_nf3_action_meta.table.gz (91/152): adding to final database dump
0004.660 (0) backup_2019-11-07-1438_Espace_Extranet_515ce9640236-db-table-extrn_nf3_actions.table.gz (92/152): adding to final database dump
0004.661 (0) backup_2019-11-07-1438_Espace_Extranet_515ce9640236-db-table-extrn_nf3_chunks.table.gz (93/152): adding to final database dump
0004.663 (0) backup_2019-11-07-1438_Espace_Extranet_515ce9640236-db-table-extrn_nf3_field_meta.table.gz (94/152): adding to final database dump
0004.667 (0) backup_2019-11-07-1438_Espace_Extranet_515ce9640236-db-table-extrn_nf3_fields.table.gz (95/152): adding to final database dump
0004.669 (0) backup_2019-11-07-1438_Espace_Extranet_515ce9640236-db-table-extrn_nf3_form_meta.table.gz (96/152): adding to final database dump
0004.672 (0) backup_2019-11-07-1438_Espace_Extranet_515ce9640236-db-table-extrn_nf3_forms.table.gz (97/152): adding to final database dump
0004.673 (0) backup_2019-11-07-1438_Espace_Extranet_515ce9640236-db-table-extrn_nf3_object_meta.table.gz (98/152): adding to final database dump
0004.675 (0) backup_2019-11-07-1438_Espace_Extranet_515ce9640236-db-table-extrn_nf3_objects.table.gz (99/152): adding to final database dump
0004.677 (0) backup_2019-11-07-1438_Espace_Extranet_515ce9640236-db-table-extrn_nf3_relationships.table.gz (100/152): adding to final database dump
0004.679 (0) backup_2019-11-07-1438_Espace_Extranet_515ce9640236-db-table-extrn_nf3_upgrades.table.gz (101/152): adding to final database dump
0004.682 (0) backup_2019-11-07-1438_Espace_Extranet_515ce9640236-db-table-extrn_ngg_album.table.gz (102/152): adding to final database dump
0004.683 (0) backup_2019-11-07-1438_Espace_Extranet_515ce9640236-db-table-extrn_ngg_gallery.table.gz (103/152): adding to final database dump
0004.685 (0) backup_2019-11-07-1438_Espace_Extranet_515ce9640236-db-table-extrn_ngg_pictures.table.gz (104/152): adding to final database dump
0004.687 (0) backup_2019-11-07-1438_Espace_Extranet_515ce9640236-db-table-extrn_pmxi_files.table.gz (105/152): adding to final database dump
0004.689 (0) backup_2019-11-07-1438_Espace_Extranet_515ce9640236-db-table-extrn_pmxi_history.table.gz (106/152): adding to final database dump
0004.690 (0) backup_2019-11-07-1438_Espace_Extranet_515ce9640236-db-table-extrn_pmxi_images.table.gz (107/152): adding to final database dump
0004.692 (0) backup_2019-11-07-1438_Espace_Extranet_515ce9640236-db-table-extrn_pmxi_imports.table.gz (108/152): adding to final database dump
0004.694 (0) backup_2019-11-07-1438_Espace_Extranet_515ce9640236-db-table-extrn_pmxi_posts.table.gz (109/152): adding to final database dump
0004.697 (0) backup_2019-11-07-1438_Espace_Extranet_515ce9640236-db-table-extrn_pmxi_templates.table.gz (110/152): adding to final database dump
0004.698 (0) backup_2019-11-07-1438_Espace_Extranet_515ce9640236-db-table-extrn_redirection_404.table.gz (111/152): adding to final database dump
0004.700 (0) backup_2019-11-07-1438_Espace_Extranet_515ce9640236-db-table-extrn_redirection_groups.table.gz (112/152): adding to final database dump
0004.702 (0) backup_2019-11-07-1438_Espace_Extranet_515ce9640236-db-table-extrn_redirection_items.table.gz (113/152): adding to final database dump
0004.703 (0) backup_2019-11-07-1438_Espace_Extranet_515ce9640236-db-table-extrn_redirection_logs.table.gz (114/152): adding to final database dump
0004.705 (0) backup_2019-11-07-1438_Espace_Extranet_515ce9640236-db-table-extrn_redirects.table.gz (115/152): adding to final database dump
0004.706 (0) backup_2019-11-07-1438_Espace_Extranet_515ce9640236-db-table-extrn_relevanssi.table.gz (116/152): adding to final database dump
0004.732 (0) backup_2019-11-07-1438_Espace_Extranet_515ce9640236-db-table-extrn_relevanssi_log.table.gz (117/152): adding to final database dump
0004.733 (0) backup_2019-11-07-1438_Espace_Extranet_515ce9640236-db-table-extrn_relevanssi_stopwords.table.gz (118/152): adding to final database dump
0004.737 (0) backup_2019-11-07-1438_Espace_Extranet_515ce9640236-db-table-extrn_sm_sessions.table.gz (119/152): adding to final database dump
0004.739 (0) backup_2019-11-07-1438_Espace_Extranet_515ce9640236-db-table-extrn_statistics_exclusions.table.gz (120/152): adding to final database dump
0004.740 (0) backup_2019-11-07-1438_Espace_Extranet_515ce9640236-db-table-extrn_statistics_historical.table.gz (121/152): adding to final database dump
0004.742 (0) backup_2019-11-07-1438_Espace_Extranet_515ce9640236-db-table-extrn_statistics_pages.table.gz (122/152): adding to final database dump
0004.743 (0) backup_2019-11-07-1438_Espace_Extranet_515ce9640236-db-table-extrn_statistics_search.table.gz (123/152): adding to final database dump
0004.745 (0) backup_2019-11-07-1438_Espace_Extranet_515ce9640236-db-table-extrn_statistics_useronline.table.gz (124/152): adding to final database dump
0004.747 (0) backup_2019-11-07-1438_Espace_Extranet_515ce9640236-db-table-extrn_statistics_visit.table.gz (125/152): adding to final database dump
0004.748 (0) backup_2019-11-07-1438_Espace_Extranet_515ce9640236-db-table-extrn_statistics_visitor.table.gz (126/152): adding to final database dump
0004.749 (0) backup_2019-11-07-1438_Espace_Extranet_515ce9640236-db-table-extrn_supracsvparser_plugin_presets.table.gz (127/152): adding to final database dump
0004.751 (0) backup_2019-11-07-1438_Espace_Extranet_515ce9640236-db-table-extrn_testutf1csv.table.gz (128/152): adding to final database dump
0004.753 (0) backup_2019-11-07-1438_Espace_Extranet_515ce9640236-db-table-extrn_testutfcsv.table.gz (129/152): adding to final database dump
0004.755 (0) backup_2019-11-07-1438_Espace_Extranet_515ce9640236-db-table-extrn_todolists_iptask.table.gz (130/152): adding to final database dump
0004.756 (0) backup_2019-11-07-1438_Espace_Extranet_515ce9640236-db-table-extrn_todolists_usertask.table.gz (131/152): adding to final database dump
0004.758 (0) backup_2019-11-07-1438_Espace_Extranet_515ce9640236-db-table-extrn_toolset_post_guid_id.table.gz (132/152): adding to final database dump
0004.759 (0) backup_2019-11-07-1438_Espace_Extranet_515ce9640236-db-table-extrn_uam_accessgroup_to_object.table.gz (133/152): adding to final database dump
0004.761 (0) backup_2019-11-07-1438_Espace_Extranet_515ce9640236-db-table-extrn_uam_accessgroups.table.gz (134/152): adding to final database dump
0004.763 (0) backup_2019-11-07-1438_Espace_Extranet_515ce9640236-db-table-extrn_webtechglobal_schedule.table.gz (135/152): adding to final database dump
0004.764 (0) backup_2019-11-07-1438_Espace_Extranet_515ce9640236-db-table-extrn_wise_chat_actions.table.gz (136/152): adding to final database dump
0004.766 (0) backup_2019-11-07-1438_Espace_Extranet_515ce9640236-db-table-extrn_wise_chat_bans.table.gz (137/152): adding to final database dump
0004.768 (0) backup_2019-11-07-1438_Espace_Extranet_515ce9640236-db-table-extrn_wise_chat_channel_users.table.gz (138/152): adding to final database dump
0004.770 (0) backup_2019-11-07-1438_Espace_Extranet_515ce9640236-db-table-extrn_wise_chat_channels.table.gz (139/152): adding to final database dump
0004.771 (0) backup_2019-11-07-1438_Espace_Extranet_515ce9640236-db-table-extrn_wise_chat_kicks.table.gz (140/152): adding to final database dump
0004.773 (0) backup_2019-11-07-1438_Espace_Extranet_515ce9640236-db-table-extrn_wise_chat_messages.table.gz (141/152): adding to final database dump
0004.775 (0) backup_2019-11-07-1438_Espace_Extranet_515ce9640236-db-table-extrn_wise_chat_users.table.gz (142/152): adding to final database dump
0004.778 (0) backup_2019-11-07-1438_Espace_Extranet_515ce9640236-db-table-extrn_wpfront_ure_content_shortcodes.table.gz (143/152): adding to final database dump
0004.779 (0) backup_2019-11-07-1438_Espace_Extranet_515ce9640236-db-table-extrn_wpfront_ure_login_redirect.table.gz (144/152): adding to final database dump
0004.782 (0) backup_2019-11-07-1438_Espace_Extranet_515ce9640236-db-table-extrn_wpfront_ure_menu_editor.table.gz (145/152): adding to final database dump
0004.784 (0) backup_2019-11-07-1438_Espace_Extranet_515ce9640236-db-table-extrn_wpfront_ure_options.table.gz (146/152): adding to final database dump
0004.786 (0) backup_2019-11-07-1438_Espace_Extranet_515ce9640236-db-table-extrn_wpfront_ure_post_type_permissions.table.gz (147/152): adding to final database dump
0004.788 (0) backup_2019-11-07-1438_Espace_Extranet_515ce9640236-db.gz: finished writing out complete database file (2864 KB)
0004.858 (0) Total database tables backed up: 147 (backup_2019-11-07-1438_Espace_Extranet_515ce9640236-db.gz, size: 2963257, sha256)
0004.866 (0) backup_2019-11-07-1438_Espace_Extranet_515ce9640236-db.gz: db: This file has not yet been successfully uploaded: will queue
0004.867 (0) Saving backup history. Total backup size: 2.8 MB
0004.870 (0) Requesting upload of the files that have not yet been successfully uploaded (1)
0004.874 (0) Cloud backup selection (1/1): googledrive with instance (1/1) (last)
0004.875 (0) Beginning dispatch of backup to remote (googledrive) (instance identifier s-cef547f3c67ac1c3a0b32e222d46484f)
0007.998 (0) Google Drive quota usage: used=210.6 MB, total=15360 MB, available=15149.4 MB
0008.003 (0) backup_2019-11-07-1438_Espace_Extranet_515ce9640236-db.gz: Attempting to upload to Google Drive (into folder id: 1LRhTdrYbdazNYrtjvvZcMgqeqbIRZXSi)
0008.850 (0) Googledrive chunked upload: 35.4 % uploaded (1048576)
0009.303 (0) Googledrive chunked upload: 70.8 % uploaded (2097152)
0011.055 (0) Googledrive chunked upload: 100 % uploaded (2097152)
0011.060 (0) OK: Archive backup_2019-11-07-1438_Espace_Extranet_515ce9640236-db.gz uploaded to Google Drive in 3.06 seconds
0011.062 (0) Recording as successfully uploaded: backup_2019-11-07-1438_Espace_Extranet_515ce9640236-db.gz
0011.066 (0) Deleting local file: backup_2019-11-07-1438_Espace_Extranet_515ce9640236-db.gz: OK
0011.069 (0) Retain: beginning examination of existing backup sets; user setting: retain_files=2, retain_db=2
0011.071 (0) Number of backup sets in history: 4; groups (db): 1
0011.072 (0) Examining (for databases) backup set with group_id=0, nonce=515ce9640236, datestamp=1573133930 (Nov 07 2019 13:38:50)
0011.073 (0) This backup set is the backup set just made, so will not be deleted.
0011.073 (0) Examining (for databases) backup set with group_id=0, nonce=eebc05bc1bf9, datestamp=1573047471 (Nov 06 2019 13:37:51)
0011.073 (0) This backup set remains non-empty (f=0/d=1); will retain in history
0011.075 (0) Examining (for databases) backup set with group_id=0, nonce=d2c9e54ecceb, datestamp=1572961096 (Nov 05 2019 13:38:16)
0011.075 (0) 1572961096: db: this set includes a database (backup_2019-11-05-1438_Espace_Extranet_d2c9e54ecceb-db.gz); db count is now 2
0011.075 (0) 1572961096: db: over retain limit (2); will delete this database
0011.075 (0) Delete file: backup_2019-11-05-1438_Espace_Extranet_d2c9e54ecceb-db.gz, service=googledrive
0012.145 (0) backup_2019-11-05-1438_Espace_Extranet_d2c9e54ecceb-db.gz: Deletion successful
0012.149 (0) This backup set is now empty; will remove from history
0012.151 (0) Deleting log file (log.d2c9e54ecceb.txt)
0012.153 (0) Examining (for databases) backup set with group_id=0, nonce=b4445e31bf4b, datestamp=1571841671 (Oct 23 2019 14:41:11)
0012.153 (0) Number of backup sets in history: 3; groups (files): 1
0012.155 (0) Examining (for files) backup set with nonce=515ce9640236, datestamp=1573133930 (Nov 07 2019 13:38:50)
0012.155 (0) This backup set remains non-empty (f=0/d=1); will retain in history
0012.156 (0) Examining (for files) backup set with nonce=eebc05bc1bf9, datestamp=1573047471 (Nov 06 2019 13:37:51)
0012.156 (0) This backup set remains non-empty (f=0/d=1); will retain in history
0012.156 (0) Examining (for files) backup set with nonce=b4445e31bf4b, datestamp=1571841671 (Oct 23 2019 14:41:11)
0012.156 (0) This backup set remains non-empty (f=1/d=0); will retain in history
0012.158 (0) Retain: saving new backup history (sets now: 3) and finishing retain operation
0012.162 (0) Resume backup (515ce9640236, 0): finish run
0012.165 (0) Decremented the semaphore (d) by 1
0012.167 (0) Semaphore (d) unlocked
0012.168 (0) There were no errors in the uploads, so the 'resume' event (1) is being unscheduled
0012.172 (0) No email will/can be sent - the user has not configured an email address.
0012.173 (0) The backup apparently succeeded and is now complete
