0000.001 (0) Opened log file at time: Wed, 06 Nov 2019 13:37:51 +0000 on http://localhost:8888/extranet
0000.006 (0) UpdraftPlus WordPress backup plugin (https://updraftplus.com): 1.16.4 WP: 5.0.3 PHP: 7.2.10 (apache2handler, Darwin DGiMacclaudeemmanuel.local 17.4.0 Darwin Kernel Version 17.4.0: Sun Dec 17 09:19:54 PST 2017; root:xnu-4570.41.2~1/RELEASE_X86_64 x86_64) MySQL: 5.7.23 WPLANG: fr_FR Server: Apache/2.2.34 (Unix) mod_wsgi/3.5 Python/2.7.13 PHP/7.2.10 mod_ssl/2.2.34 OpenSSL/1.0.2o DAV/2 mod_fastcgi/mod_fastcgi-SNAP-0910052141 mod_perl/2.0.9 Perl/v5.24.0 safe_mode: 0 max_execution_time: 900 memory_limit: 256M (used: 91.1M | 6.5M) multisite: N openssl: OpenSSL 1.0.2o  27 Mar 2018 mcrypt: N LANG:  ZipArchive::addFile: Y
0000.008 (0) Free space on disk containing Updraft's temporary directory: 474743.7 MB
0000.012 (0) Tasks: Backup files:  (schedule: manual) Backup DB: 1 (schedule: daily)
0000.013 (0) Processed schedules. Tasks now: Backup files:  Backup DB: 1
0000.022 (0) Requesting semaphore lock (d) (apparently via scheduler: last_scheduled_action_called_at=1572961096, seconds_ago=86375)
0000.027 (0) Set semaphore last lock (d) time to 2019-11-06 13:37:51
0000.028 (0) Semaphore lock (d) complete
0000.034 (0) Backup run: resumption=0, nonce=eebc05bc1bf9, file_nonce=eebc05bc1bf9 begun at=1573047471 (0s ago), job type=backup
0000.038 (0) Scheduling a resumption (1) after 300 seconds (1573047771) in case this run gets aborted
0000.051 (0) This backup run is not intended for files - skipping
0000.053 (0) Beginning creation of database dump (WordPress DB)
0000.209 (0) Table extrn_options: Total expected rows (approximate): 2432
0000.887 (0) Table extrn_options: Total rows added: 2555 in 0.68 seconds
0000.892 (0) Table extrn_options: finishing file (backup_2019-11-06-1437_Espace_Extranet_eebc05bc1bf9-db-table-extrn_options.table.gz - 2110.7 KB)
0000.899 (0) Table extrn_users: Total expected rows (approximate): 7
0000.902 (0) Table extrn_users: Total rows added: 7 in 0.00 seconds
0000.904 (0) Table extrn_users: finishing file (backup_2019-11-06-1437_Espace_Extranet_eebc05bc1bf9-db-table-extrn_users.table.gz - 1.1 KB)
0000.909 (0) Table extrn_usermeta: Total expected rows (approximate): 769
0000.932 (0) Table extrn_usermeta: Total rows added: 826 in 0.02 seconds
0000.934 (0) Table extrn_usermeta: finishing file (backup_2019-11-06-1437_Espace_Extranet_eebc05bc1bf9-db-table-extrn_usermeta.table.gz - 12.5 KB)
0000.941 (0) Table extrn_commentmeta: Total expected rows (approximate): 0
0000.943 (0) Table extrn_commentmeta: Total rows added: 0 in 0.00 seconds
0000.945 (0) Table extrn_commentmeta: finishing file (backup_2019-11-06-1437_Espace_Extranet_eebc05bc1bf9-db-table-extrn_commentmeta.table.gz - 0.4 KB)
0000.950 (0) Table extrn_comments: Total expected rows (approximate): 3
0000.953 (0) Table extrn_comments: Total rows added: 3 in 0.00 seconds
0000.954 (0) Table extrn_comments: finishing file (backup_2019-11-06-1437_Espace_Extranet_eebc05bc1bf9-db-table-extrn_comments.table.gz - 0.8 KB)
0000.995 (0) Table extrn_links: Total expected rows (approximate): 0
0000.998 (0) Table extrn_links: Total rows added: 0 in 0.00 seconds
0000.999 (0) Table extrn_links: finishing file (backup_2019-11-06-1437_Espace_Extranet_eebc05bc1bf9-db-table-extrn_links.table.gz - 0.4 KB)
0001.004 (0) Table extrn_postmeta: Total expected rows (approximate): 7109
0001.293 (0) Table extrn_postmeta: Total rows added: 9026 in 0.29 seconds
0001.295 (0) Table extrn_postmeta: finishing file (backup_2019-11-06-1437_Espace_Extranet_eebc05bc1bf9-db-table-extrn_postmeta.table.gz - 176.6 KB)
0001.301 (0) Table extrn_posts: Total expected rows (approximate): 2314
0001.563 (0) Table extrn_posts: Total rows added: 2314 in 0.26 seconds
0001.564 (0) Table extrn_posts: finishing file (backup_2019-11-06-1437_Espace_Extranet_eebc05bc1bf9-db-table-extrn_posts.table.gz - 111.1 KB)
0001.569 (0) Table extrn_term_relationships: Total expected rows (approximate): 364
0001.577 (0) Table extrn_term_relationships: Total rows added: 393 in 0.01 seconds
0001.579 (0) Table extrn_term_relationships: finishing file (backup_2019-11-06-1437_Espace_Extranet_eebc05bc1bf9-db-table-extrn_term_relationships.table.gz - 1.5 KB)
0001.584 (0) Table extrn_term_taxonomy: Total expected rows (approximate): 125
0001.590 (0) Table extrn_term_taxonomy: Total rows added: 159 in 0.01 seconds
0001.592 (0) Table extrn_term_taxonomy: finishing file (backup_2019-11-06-1437_Espace_Extranet_eebc05bc1bf9-db-table-extrn_term_taxonomy.table.gz - 1.6 KB)
0001.597 (0) Table extrn_termmeta: Total expected rows (approximate): 302
0001.608 (0) Table extrn_termmeta: Total rows added: 306 in 0.01 seconds
0001.610 (0) Table extrn_termmeta: finishing file (backup_2019-11-06-1437_Espace_Extranet_eebc05bc1bf9-db-table-extrn_termmeta.table.gz - 3.5 KB)
0001.615 (0) Table extrn_terms: Total expected rows (approximate): 125
0001.621 (0) Table extrn_terms: Total rows added: 159 in 0.00 seconds
0001.623 (0) Table extrn_terms: finishing file (backup_2019-11-06-1437_Espace_Extranet_eebc05bc1bf9-db-table-extrn_terms.table.gz - 3.3 KB)
0001.647 (0) Table extrn_ahm_download_stats: Total expected rows (approximate): 0
0001.650 (0) Table extrn_ahm_download_stats: Total rows added: 0 in 0.00 seconds
0001.651 (0) Table extrn_ahm_download_stats: finishing file (backup_2019-11-06-1437_Espace_Extranet_eebc05bc1bf9-db-table-extrn_ahm_download_stats.table.gz - 0.3 KB)
0001.686 (0) Table extrn_ahm_emails: Total expected rows (approximate): 0
0001.689 (0) Table extrn_ahm_emails: Total rows added: 0 in 0.00 seconds
0001.691 (0) Table extrn_ahm_emails: finishing file (backup_2019-11-06-1437_Espace_Extranet_eebc05bc1bf9-db-table-extrn_ahm_emails.table.gz - 0.3 KB)
0001.727 (0) Table extrn_alm: Total expected rows (approximate): 0
0001.731 (0) Table extrn_alm: Total rows added: 1 in 0.00 seconds
0001.732 (0) Table extrn_alm: finishing file (backup_2019-11-06-1437_Espace_Extranet_eebc05bc1bf9-db-table-extrn_alm.table.gz - 0.3 KB)
0001.740 (0) Table extrn_alm_unlimited: Total expected rows (approximate): 8
0001.743 (0) Table extrn_alm_unlimited: Total rows added: 9 in 0.00 seconds
0001.745 (0) Table extrn_alm_unlimited: finishing file (backup_2019-11-06-1437_Espace_Extranet_eebc05bc1bf9-db-table-extrn_alm_unlimited.table.gz - 2.3 KB)
0001.757 (0) Table extrn_bookacti_activities: Total expected rows (approximate): 0
0001.762 (0) Table extrn_bookacti_activities: Total rows added: 0 in 0.00 seconds
0001.764 (0) Table extrn_bookacti_activities: finishing file (backup_2019-11-06-1437_Espace_Extranet_eebc05bc1bf9-db-table-extrn_bookacti_activities.table.gz - 0.4 KB)
0001.772 (0) Table extrn_bookacti_booking_groups: Total expected rows (approximate): 0
0001.775 (0) Table extrn_bookacti_booking_groups: Total rows added: 0 in 0.00 seconds
0001.776 (0) Table extrn_bookacti_booking_groups: finishing file (backup_2019-11-06-1437_Espace_Extranet_eebc05bc1bf9-db-table-extrn_bookacti_booking_groups.table.gz - 0.4 KB)
0001.800 (0) Table extrn_bookacti_bookings: Total expected rows (approximate): 0
0001.803 (0) Table extrn_bookacti_bookings: Total rows added: 0 in 0.00 seconds
0001.805 (0) Table extrn_bookacti_bookings: finishing file (backup_2019-11-06-1437_Espace_Extranet_eebc05bc1bf9-db-table-extrn_bookacti_bookings.table.gz - 0.4 KB)
0001.811 (0) Table extrn_bookacti_event_groups: Total expected rows (approximate): 0
0001.813 (0) Table extrn_bookacti_event_groups: Total rows added: 0 in 0.00 seconds
0001.816 (0) Table extrn_bookacti_event_groups: finishing file (backup_2019-11-06-1437_Espace_Extranet_eebc05bc1bf9-db-table-extrn_bookacti_event_groups.table.gz - 0.3 KB)
0001.823 (0) Table extrn_bookacti_events: Total expected rows (approximate): 0
0001.825 (0) Table extrn_bookacti_events: Total rows added: 0 in 0.00 seconds
0001.827 (0) Table extrn_bookacti_events: finishing file (backup_2019-11-06-1437_Espace_Extranet_eebc05bc1bf9-db-table-extrn_bookacti_events.table.gz - 0.4 KB)
0001.833 (0) Table extrn_bookacti_exceptions: Total expected rows (approximate): 0
0001.836 (0) Table extrn_bookacti_exceptions: Total rows added: 0 in 0.00 seconds
0001.837 (0) Table extrn_bookacti_exceptions: finishing file (backup_2019-11-06-1437_Espace_Extranet_eebc05bc1bf9-db-table-extrn_bookacti_exceptions.table.gz - 0.3 KB)
0001.843 (0) Table extrn_bookacti_form_fields: Total expected rows (approximate): 0
0001.846 (0) Table extrn_bookacti_form_fields: Total rows added: 0 in 0.00 seconds
0001.847 (0) Table extrn_bookacti_form_fields: finishing file (backup_2019-11-06-1437_Espace_Extranet_eebc05bc1bf9-db-table-extrn_bookacti_form_fields.table.gz - 0.4 KB)
0001.853 (0) Table extrn_bookacti_forms: Total expected rows (approximate): 0
0001.856 (0) Table extrn_bookacti_forms: Total rows added: 0 in 0.00 seconds
0001.857 (0) Table extrn_bookacti_forms: finishing file (backup_2019-11-06-1437_Espace_Extranet_eebc05bc1bf9-db-table-extrn_bookacti_forms.table.gz - 0.4 KB)
0002.063 (0) Table extrn_bookacti_group_categories: Total expected rows (approximate): 0
0002.066 (0) Table extrn_bookacti_group_categories: Total rows added: 0 in 0.00 seconds
0002.067 (0) Table extrn_bookacti_group_categories: finishing file (backup_2019-11-06-1437_Espace_Extranet_eebc05bc1bf9-db-table-extrn_bookacti_group_categories.table.gz - 0.3 KB)
0002.073 (0) Table extrn_bookacti_groups_events: Total expected rows (approximate): 0
0002.076 (0) Table extrn_bookacti_groups_events: Total rows added: 0 in 0.00 seconds
0002.077 (0) Table extrn_bookacti_groups_events: finishing file (backup_2019-11-06-1437_Espace_Extranet_eebc05bc1bf9-db-table-extrn_bookacti_groups_events.table.gz - 0.3 KB)
0002.083 (0) Table extrn_bookacti_meta: Total expected rows (approximate): 10
0002.086 (0) Table extrn_bookacti_meta: Total rows added: 10 in 0.00 seconds
0002.089 (0) Table extrn_bookacti_meta: finishing file (backup_2019-11-06-1437_Espace_Extranet_eebc05bc1bf9-db-table-extrn_bookacti_meta.table.gz - 0.5 KB)
0002.116 (0) Table extrn_bookacti_permissions: Total expected rows (approximate): 0
0002.118 (0) Table extrn_bookacti_permissions: Total rows added: 0 in 0.00 seconds
0002.120 (0) Table extrn_bookacti_permissions: finishing file (backup_2019-11-06-1437_Espace_Extranet_eebc05bc1bf9-db-table-extrn_bookacti_permissions.table.gz - 0.3 KB)
0002.126 (0) Table extrn_bookacti_templates: Total expected rows (approximate): 2
0002.128 (0) Table extrn_bookacti_templates: Total rows added: 2 in 0.00 seconds
0002.130 (0) Table extrn_bookacti_templates: finishing file (backup_2019-11-06-1437_Espace_Extranet_eebc05bc1bf9-db-table-extrn_bookacti_templates.table.gz - 0.4 KB)
0002.136 (0) Table extrn_bookacti_templates_activities: Total expected rows (approximate): 0
0002.138 (0) Table extrn_bookacti_templates_activities: Total rows added: 0 in 0.00 seconds
0002.139 (0) Table extrn_bookacti_templates_activities: finishing file (backup_2019-11-06-1437_Espace_Extranet_eebc05bc1bf9-db-table-extrn_bookacti_templates_activities.table.gz - 0.3 KB)
0002.173 (0) Table extrn_booking: Total expected rows (approximate): 0
0002.176 (0) Table extrn_booking: Total rows added: 1 in 0.00 seconds
0002.177 (0) Table extrn_booking: finishing file (backup_2019-11-06-1437_Espace_Extranet_eebc05bc1bf9-db-table-extrn_booking.table.gz - 0.6 KB)
0002.182 (0) Table extrn_bookingdates: Total expected rows (approximate): 3
0002.187 (0) Table extrn_bookingdates: Total rows added: 3 in 0.00 seconds
0002.189 (0) Table extrn_bookingdates: finishing file (backup_2019-11-06-1437_Espace_Extranet_eebc05bc1bf9-db-table-extrn_bookingdates.table.gz - 0.4 KB)
0002.196 (0) Table extrn_bwg_album: Total expected rows (approximate): 0
0002.199 (0) Table extrn_bwg_album: Total rows added: 0 in 0.00 seconds
0002.201 (0) Table extrn_bwg_album: finishing file (backup_2019-11-06-1437_Espace_Extranet_eebc05bc1bf9-db-table-extrn_bwg_album.table.gz - 0.4 KB)
0002.208 (0) Table extrn_bwg_album_gallery: Total expected rows (approximate): 0
0002.210 (0) Table extrn_bwg_album_gallery: Total rows added: 0 in 0.00 seconds
0002.212 (0) Table extrn_bwg_album_gallery: finishing file (backup_2019-11-06-1437_Espace_Extranet_eebc05bc1bf9-db-table-extrn_bwg_album_gallery.table.gz - 0.3 KB)
0002.247 (0) Table extrn_bwg_file_paths: Total expected rows (approximate): 5
0002.251 (0) Table extrn_bwg_file_paths: Total rows added: 5 in 0.00 seconds
0002.252 (0) Table extrn_bwg_file_paths: finishing file (backup_2019-11-06-1437_Espace_Extranet_eebc05bc1bf9-db-table-extrn_bwg_file_paths.table.gz - 0.7 KB)
0002.281 (0) Table extrn_bwg_gallery: Total expected rows (approximate): 0
0002.284 (0) Table extrn_bwg_gallery: Total rows added: 1 in 0.00 seconds
0002.285 (0) Table extrn_bwg_gallery: finishing file (backup_2019-11-06-1437_Espace_Extranet_eebc05bc1bf9-db-table-extrn_bwg_gallery.table.gz - 0.5 KB)
0002.291 (0) Table extrn_bwg_image: Total expected rows (approximate): 5
0002.295 (0) Table extrn_bwg_image: Total rows added: 5 in 0.00 seconds
0002.297 (0) Table extrn_bwg_image: finishing file (backup_2019-11-06-1437_Espace_Extranet_eebc05bc1bf9-db-table-extrn_bwg_image.table.gz - 0.8 KB)
0002.303 (0) Table extrn_bwg_image_comment: Total expected rows (approximate): 0
0002.305 (0) Table extrn_bwg_image_comment: Total rows added: 0 in 0.00 seconds
0002.307 (0) Table extrn_bwg_image_comment: finishing file (backup_2019-11-06-1437_Espace_Extranet_eebc05bc1bf9-db-table-extrn_bwg_image_comment.table.gz - 0.4 KB)
0002.312 (0) Table extrn_bwg_image_rate: Total expected rows (approximate): 0
0002.315 (0) Table extrn_bwg_image_rate: Total rows added: 0 in 0.00 seconds
0002.316 (0) Table extrn_bwg_image_rate: finishing file (backup_2019-11-06-1437_Espace_Extranet_eebc05bc1bf9-db-table-extrn_bwg_image_rate.table.gz - 0.3 KB)
0002.345 (0) Table extrn_bwg_image_tag: Total expected rows (approximate): 0
0002.347 (0) Table extrn_bwg_image_tag: Total rows added: 0 in 0.00 seconds
0002.348 (0) Table extrn_bwg_image_tag: finishing file (backup_2019-11-06-1437_Espace_Extranet_eebc05bc1bf9-db-table-extrn_bwg_image_tag.table.gz - 0.3 KB)
0002.353 (0) Table extrn_bwg_shortcode: Total expected rows (approximate): 0
0002.386 (0) Table extrn_bwg_shortcode: Total rows added: 1 in 0.03 seconds
0002.388 (0) Table extrn_bwg_shortcode: finishing file (backup_2019-11-06-1437_Espace_Extranet_eebc05bc1bf9-db-table-extrn_bwg_shortcode.table.gz - 0.4 KB)
0002.396 (0) Table extrn_bwg_theme: Total expected rows (approximate): 2
0002.401 (0) Table extrn_bwg_theme: Total rows added: 2 in 0.00 seconds
0002.402 (0) Table extrn_bwg_theme: finishing file (backup_2019-11-06-1437_Espace_Extranet_eebc05bc1bf9-db-table-extrn_bwg_theme.table.gz - 4.3 KB)
0002.408 (0) Table extrn_c2pprojects: Total expected rows (approximate): 0
0002.411 (0) Table extrn_c2pprojects: Total rows added: 1 in 0.00 seconds
0002.413 (0) Table extrn_c2pprojects: finishing file (backup_2019-11-06-1437_Espace_Extranet_eebc05bc1bf9-db-table-extrn_c2pprojects.table.gz - 0.6 KB)
0002.435 (0) Table extrn_c2psources: Total expected rows (approximate): 2
0002.438 (0) Table extrn_c2psources: Total rows added: 2 in 0.00 seconds
0002.440 (0) Table extrn_c2psources: finishing file (backup_2019-11-06-1437_Espace_Extranet_eebc05bc1bf9-db-table-extrn_c2psources.table.gz - 1.1 KB)
0002.446 (0) Table extrn_cfs_sessions: Total expected rows (approximate): 34
0002.451 (0) Table extrn_cfs_sessions: Total rows added: 36 in 0.00 seconds
0002.452 (0) Table extrn_cfs_sessions: finishing file (backup_2019-11-06-1437_Espace_Extranet_eebc05bc1bf9-db-table-extrn_cfs_sessions.table.gz - 1.4 KB)
0002.483 (0) Table extrn_cfs_values: Total expected rows (approximate): 77
0002.487 (0) Table extrn_cfs_values: Total rows added: 77 in 0.00 seconds
0002.489 (0) Table extrn_cfs_values: finishing file (backup_2019-11-06-1437_Espace_Extranet_eebc05bc1bf9-db-table-extrn_cfs_values.table.gz - 0.7 KB)
0002.495 (0) Table extrn_connections: Total expected rows (approximate): 0
0002.498 (0) Table extrn_connections: Total rows added: 0 in 0.00 seconds
0002.500 (0) Table extrn_connections: finishing file (backup_2019-11-06-1437_Espace_Extranet_eebc05bc1bf9-db-table-extrn_connections.table.gz - 0.6 KB)
0002.506 (0) Table extrn_connections_address: Total expected rows (approximate): 0
0002.509 (0) Table extrn_connections_address: Total rows added: 0 in 0.00 seconds
0002.510 (0) Table extrn_connections_address: finishing file (backup_2019-11-06-1437_Espace_Extranet_eebc05bc1bf9-db-table-extrn_connections_address.table.gz - 0.5 KB)
0002.517 (0) Table extrn_connections_date: Total expected rows (approximate): 0
0002.519 (0) Table extrn_connections_date: Total rows added: 0 in 0.00 seconds
0002.520 (0) Table extrn_connections_date: finishing file (backup_2019-11-06-1437_Espace_Extranet_eebc05bc1bf9-db-table-extrn_connections_date.table.gz - 0.4 KB)
0002.529 (0) Table extrn_connections_email: Total expected rows (approximate): 0
0002.531 (0) Table extrn_connections_email: Total rows added: 0 in 0.00 seconds
0002.532 (0) Table extrn_connections_email: finishing file (backup_2019-11-06-1437_Espace_Extranet_eebc05bc1bf9-db-table-extrn_connections_email.table.gz - 0.4 KB)
0002.540 (0) Table extrn_connections_link: Total expected rows (approximate): 0
0002.543 (0) Table extrn_connections_link: Total rows added: 0 in 0.00 seconds
0002.544 (0) Table extrn_connections_link: finishing file (backup_2019-11-06-1437_Espace_Extranet_eebc05bc1bf9-db-table-extrn_connections_link.table.gz - 0.4 KB)
0002.550 (0) Table extrn_connections_messenger: Total expected rows (approximate): 0
0002.552 (0) Table extrn_connections_messenger: Total rows added: 0 in 0.00 seconds
0002.554 (0) Table extrn_connections_messenger: finishing file (backup_2019-11-06-1437_Espace_Extranet_eebc05bc1bf9-db-table-extrn_connections_messenger.table.gz - 0.4 KB)
0002.581 (0) Table extrn_connections_meta: Total expected rows (approximate): 0
0002.584 (0) Table extrn_connections_meta: Total rows added: 0 in 0.00 seconds
0002.585 (0) Table extrn_connections_meta: finishing file (backup_2019-11-06-1437_Espace_Extranet_eebc05bc1bf9-db-table-extrn_connections_meta.table.gz - 0.4 KB)
0002.608 (0) Table extrn_connections_phone: Total expected rows (approximate): 0
0002.611 (0) Table extrn_connections_phone: Total rows added: 0 in 0.00 seconds
0002.612 (0) Table extrn_connections_phone: finishing file (backup_2019-11-06-1437_Espace_Extranet_eebc05bc1bf9-db-table-extrn_connections_phone.table.gz - 0.4 KB)
0002.618 (0) Table extrn_connections_social: Total expected rows (approximate): 0
0002.620 (0) Table extrn_connections_social: Total rows added: 0 in 0.00 seconds
0002.622 (0) Table extrn_connections_social: finishing file (backup_2019-11-06-1437_Espace_Extranet_eebc05bc1bf9-db-table-extrn_connections_social.table.gz - 0.4 KB)
0002.628 (0) Table extrn_connections_term_meta: Total expected rows (approximate): 0
0002.631 (0) Table extrn_connections_term_meta: Total rows added: 0 in 0.00 seconds
0002.632 (0) Table extrn_connections_term_meta: finishing file (backup_2019-11-06-1437_Espace_Extranet_eebc05bc1bf9-db-table-extrn_connections_term_meta.table.gz - 0.4 KB)
0002.638 (0) Table extrn_connections_term_relationships: Total expected rows (approximate): 0
0002.641 (0) Table extrn_connections_term_relationships: Total rows added: 0 in 0.00 seconds
0002.642 (0) Table extrn_connections_term_relationships: finishing file (backup_2019-11-06-1437_Espace_Extranet_eebc05bc1bf9-db-table-extrn_connections_term_relationships.table.gz - 0.3 KB)
0002.648 (0) Table extrn_connections_term_taxonomy: Total expected rows (approximate): 0
0002.651 (0) Table extrn_connections_term_taxonomy: Total rows added: 1 in 0.00 seconds
0002.652 (0) Table extrn_connections_term_taxonomy: finishing file (backup_2019-11-06-1437_Espace_Extranet_eebc05bc1bf9-db-table-extrn_connections_term_taxonomy.table.gz - 0.4 KB)
0002.659 (0) Table extrn_connections_terms: Total expected rows (approximate): 0
0002.661 (0) Table extrn_connections_terms: Total rows added: 1 in 0.00 seconds
0002.662 (0) Table extrn_connections_terms: finishing file (backup_2019-11-06-1437_Espace_Extranet_eebc05bc1bf9-db-table-extrn_connections_terms.table.gz - 0.4 KB)
0002.688 (0) Table extrn_cpk_wpcsv_export_queue: Total expected rows (approximate): 0
0002.690 (0) Table extrn_cpk_wpcsv_export_queue: Total rows added: 0 in 0.00 seconds
0002.691 (0) Table extrn_cpk_wpcsv_export_queue: finishing file (backup_2019-11-06-1437_Espace_Extranet_eebc05bc1bf9-db-table-extrn_cpk_wpcsv_export_queue.table.gz - 0.3 KB)
0002.697 (0) Table extrn_cpk_wpcsv_log: Total expected rows (approximate): 3
0002.700 (0) Table extrn_cpk_wpcsv_log: Total rows added: 3 in 0.00 seconds
0002.702 (0) Table extrn_cpk_wpcsv_log: finishing file (backup_2019-11-06-1437_Espace_Extranet_eebc05bc1bf9-db-table-extrn_cpk_wpcsv_log.table.gz - 0.5 KB)
0002.722 (0) Table extrn_dlm_order: Total expected rows (approximate): 0
0002.724 (0) Table extrn_dlm_order: Total rows added: 0 in 0.00 seconds
0002.726 (0) Table extrn_dlm_order: finishing file (backup_2019-11-06-1437_Espace_Extranet_eebc05bc1bf9-db-table-extrn_dlm_order.table.gz - 0.4 KB)
0002.731 (0) Table extrn_dlm_order_customer: Total expected rows (approximate): 0
0002.734 (0) Table extrn_dlm_order_customer: Total rows added: 0 in 0.00 seconds
0002.736 (0) Table extrn_dlm_order_customer: finishing file (backup_2019-11-06-1437_Espace_Extranet_eebc05bc1bf9-db-table-extrn_dlm_order_customer.table.gz - 0.5 KB)
0002.742 (0) Table extrn_dlm_order_item: Total expected rows (approximate): 0
0002.745 (0) Table extrn_dlm_order_item: Total rows added: 0 in 0.00 seconds
0002.746 (0) Table extrn_dlm_order_item: finishing file (backup_2019-11-06-1437_Espace_Extranet_eebc05bc1bf9-db-table-extrn_dlm_order_item.table.gz - 0.4 KB)
0002.753 (0) Table extrn_dlm_order_transaction: Total expected rows (approximate): 0
0002.755 (0) Table extrn_dlm_order_transaction: Total rows added: 0 in 0.00 seconds
0002.757 (0) Table extrn_dlm_order_transaction: finishing file (backup_2019-11-06-1437_Espace_Extranet_eebc05bc1bf9-db-table-extrn_dlm_order_transaction.table.gz - 0.5 KB)
0002.763 (0) Table extrn_dlm_session: Total expected rows (approximate): 0
0002.776 (0) Table extrn_dlm_session: Total rows added: 0 in 0.01 seconds
0002.778 (0) Table extrn_dlm_session: finishing file (backup_2019-11-06-1437_Espace_Extranet_eebc05bc1bf9-db-table-extrn_dlm_session.table.gz - 0.3 KB)
0002.784 (0) Table extrn_download_log: Total expected rows (approximate): 0
0002.787 (0) Table extrn_download_log: Total rows added: 1 in 0.00 seconds
0002.788 (0) Table extrn_download_log: finishing file (backup_2019-11-06-1437_Espace_Extranet_eebc05bc1bf9-db-table-extrn_download_log.table.gz - 0.6 KB)
0002.793 (0) Table extrn_em_bookings: Total expected rows (approximate): 9
0002.796 (0) Table extrn_em_bookings: Total rows added: 12 in 0.00 seconds
0002.798 (0) Table extrn_em_bookings: finishing file (backup_2019-11-06-1437_Espace_Extranet_eebc05bc1bf9-db-table-extrn_em_bookings.table.gz - 0.7 KB)
0002.803 (0) Table extrn_em_events: Total expected rows (approximate): 7
0002.808 (0) Table extrn_em_events: Total rows added: 9 in 0.00 seconds
0002.810 (0) Table extrn_em_events: finishing file (backup_2019-11-06-1437_Espace_Extranet_eebc05bc1bf9-db-table-extrn_em_events.table.gz - 1.9 KB)
0002.815 (0) Table extrn_em_locations: Total expected rows (approximate): 2
0002.818 (0) Table extrn_em_locations: Total rows added: 6 in 0.00 seconds
0002.819 (0) Table extrn_em_locations: finishing file (backup_2019-11-06-1437_Espace_Extranet_eebc05bc1bf9-db-table-extrn_em_locations.table.gz - 0.8 KB)
0002.826 (0) Table extrn_em_meta: Total expected rows (approximate): 0
0002.828 (0) Table extrn_em_meta: Total rows added: 0 in 0.00 seconds
0002.830 (0) Table extrn_em_meta: finishing file (backup_2019-11-06-1437_Espace_Extranet_eebc05bc1bf9-db-table-extrn_em_meta.table.gz - 0.4 KB)
0002.836 (0) Table extrn_em_tickets: Total expected rows (approximate): 5
0002.839 (0) Table extrn_em_tickets: Total rows added: 8 in 0.00 seconds
0002.841 (0) Table extrn_em_tickets: finishing file (backup_2019-11-06-1437_Espace_Extranet_eebc05bc1bf9-db-table-extrn_em_tickets.table.gz - 0.6 KB)
0002.846 (0) Table extrn_em_tickets_bookings: Total expected rows (approximate): 9
0002.848 (0) Table extrn_em_tickets_bookings: Total rows added: 12 in 0.00 seconds
0002.850 (0) Table extrn_em_tickets_bookings: finishing file (backup_2019-11-06-1437_Espace_Extranet_eebc05bc1bf9-db-table-extrn_em_tickets_bookings.table.gz - 0.5 KB)
0002.855 (0) Table extrn_fb3d_pages: Total expected rows (approximate): 0
0002.859 (0) Table extrn_fb3d_pages: Total rows added: 0 in 0.00 seconds
0002.860 (0) Table extrn_fb3d_pages: finishing file (backup_2019-11-06-1437_Espace_Extranet_eebc05bc1bf9-db-table-extrn_fb3d_pages.table.gz - 0.4 KB)
0002.866 (0) Table extrn_gg_attributes: Total expected rows (approximate): 0
0002.868 (0) Table extrn_gg_attributes: Total rows added: 0 in 0.00 seconds
0002.870 (0) Table extrn_gg_attributes: finishing file (backup_2019-11-06-1437_Espace_Extranet_eebc05bc1bf9-db-table-extrn_gg_attributes.table.gz - 0.3 KB)
0002.895 (0) Table extrn_gg_galleries: Total expected rows (approximate): 0
0002.898 (0) Table extrn_gg_galleries: Total rows added: 1 in 0.00 seconds
0002.899 (0) Table extrn_gg_galleries: finishing file (backup_2019-11-06-1437_Espace_Extranet_eebc05bc1bf9-db-table-extrn_gg_galleries.table.gz - 0.3 KB)
0002.905 (0) Table extrn_gg_galleries_resources: Total expected rows (approximate): 0
0002.908 (0) Table extrn_gg_galleries_resources: Total rows added: 0 in 0.00 seconds
0002.909 (0) Table extrn_gg_galleries_resources: finishing file (backup_2019-11-06-1437_Espace_Extranet_eebc05bc1bf9-db-table-extrn_gg_galleries_resources.table.gz - 0.3 KB)
0002.932 (0) Table extrn_gg_photos: Total expected rows (approximate): 0
0002.934 (0) Table extrn_gg_photos: Total rows added: 0 in 0.00 seconds
0002.936 (0) Table extrn_gg_photos: finishing file (backup_2019-11-06-1437_Espace_Extranet_eebc05bc1bf9-db-table-extrn_gg_photos.table.gz - 0.3 KB)
0002.952 (0) Table extrn_gg_settings_sets: Total expected rows (approximate): 0
0002.955 (0) Table extrn_gg_settings_sets: Total rows added: 1 in 0.00 seconds
0002.956 (0) Table extrn_gg_settings_sets: finishing file (backup_2019-11-06-1437_Espace_Extranet_eebc05bc1bf9-db-table-extrn_gg_settings_sets.table.gz - 2.1 KB)
0002.966 (0) Table extrn_gg_tags: Total expected rows (approximate): 0
0002.968 (0) Table extrn_gg_tags: Total rows added: 0 in 0.00 seconds
0002.970 (0) Table extrn_gg_tags: finishing file (backup_2019-11-06-1437_Espace_Extranet_eebc05bc1bf9-db-table-extrn_gg_tags.table.gz - 0.3 KB)
0003.000 (0) Table extrn_gp_glossaries: Total expected rows (approximate): 0
0003.002 (0) Table extrn_gp_glossaries: Total rows added: 0 in 0.00 seconds
0003.004 (0) Table extrn_gp_glossaries: finishing file (backup_2019-11-06-1437_Espace_Extranet_eebc05bc1bf9-db-table-extrn_gp_glossaries.table.gz - 0.3 KB)
0003.031 (0) Table extrn_gp_glossary_entries: Total expected rows (approximate): 0
0003.034 (0) Table extrn_gp_glossary_entries: Total rows added: 0 in 0.00 seconds
0003.036 (0) Table extrn_gp_glossary_entries: finishing file (backup_2019-11-06-1437_Espace_Extranet_eebc05bc1bf9-db-table-extrn_gp_glossary_entries.table.gz - 0.4 KB)
0003.066 (0) Table extrn_gp_meta: Total expected rows (approximate): 0
0003.069 (0) Table extrn_gp_meta: Total rows added: 0 in 0.00 seconds
0003.070 (0) Table extrn_gp_meta: finishing file (backup_2019-11-06-1437_Espace_Extranet_eebc05bc1bf9-db-table-extrn_gp_meta.table.gz - 0.4 KB)
0003.095 (0) Table extrn_gp_originals: Total expected rows (approximate): 0
0003.098 (0) Table extrn_gp_originals: Total rows added: 0 in 0.00 seconds
0003.099 (0) Table extrn_gp_originals: finishing file (backup_2019-11-06-1437_Espace_Extranet_eebc05bc1bf9-db-table-extrn_gp_originals.table.gz - 0.5 KB)
0003.105 (0) Table extrn_gp_permissions: Total expected rows (approximate): 0
0003.108 (0) Table extrn_gp_permissions: Total rows added: 1 in 0.00 seconds
0003.110 (0) Table extrn_gp_permissions: finishing file (backup_2019-11-06-1437_Espace_Extranet_eebc05bc1bf9-db-table-extrn_gp_permissions.table.gz - 0.4 KB)
0003.116 (0) Table extrn_gp_projects: Total expected rows (approximate): 0
0003.119 (0) Table extrn_gp_projects: Total rows added: 0 in 0.00 seconds
0003.120 (0) Table extrn_gp_projects: finishing file (backup_2019-11-06-1437_Espace_Extranet_eebc05bc1bf9-db-table-extrn_gp_projects.table.gz - 0.4 KB)
0003.126 (0) Table extrn_gp_translation_sets: Total expected rows (approximate): 0
0003.129 (0) Table extrn_gp_translation_sets: Total rows added: 0 in 0.00 seconds
0003.130 (0) Table extrn_gp_translation_sets: finishing file (backup_2019-11-06-1437_Espace_Extranet_eebc05bc1bf9-db-table-extrn_gp_translation_sets.table.gz - 0.4 KB)
0003.173 (0) Table extrn_gp_translations: Total expected rows (approximate): 0
0003.176 (0) Table extrn_gp_translations: Total rows added: 0 in 0.00 seconds
0003.177 (0) Table extrn_gp_translations: finishing file (backup_2019-11-06-1437_Espace_Extranet_eebc05bc1bf9-db-table-extrn_gp_translations.table.gz - 0.5 KB)
0003.214 (0) Table extrn_importer_files: Total expected rows (approximate): 0
0003.216 (0) Table extrn_importer_files: Total rows added: 1 in 0.00 seconds
0003.218 (0) Table extrn_importer_files: finishing file (backup_2019-11-06-1437_Espace_Extranet_eebc05bc1bf9-db-table-extrn_importer_files.table.gz - 0.4 KB)
0003.224 (0) Table extrn_importer_log: Total expected rows (approximate): 0
0003.226 (0) Table extrn_importer_log: Total rows added: 0 in 0.00 seconds
0003.228 (0) Table extrn_importer_log: finishing file (backup_2019-11-06-1437_Espace_Extranet_eebc05bc1bf9-db-table-extrn_importer_log.table.gz - 0.4 KB)
0003.250 (0) Table extrn_nf3_action_meta: Total expected rows (approximate): 346
0003.264 (0) Table extrn_nf3_action_meta: Total rows added: 346 in 0.01 seconds
0003.265 (0) Table extrn_nf3_action_meta: finishing file (backup_2019-11-06-1437_Espace_Extranet_eebc05bc1bf9-db-table-extrn_nf3_action_meta.table.gz - 3.4 KB)
0003.274 (0) Table extrn_nf3_actions: Total expected rows (approximate): 15
0003.277 (0) Table extrn_nf3_actions: Total rows added: 16 in 0.00 seconds
0003.279 (0) Table extrn_nf3_actions: finishing file (backup_2019-11-06-1437_Espace_Extranet_eebc05bc1bf9-db-table-extrn_nf3_actions.table.gz - 0.7 KB)
0003.302 (0) Table extrn_nf3_chunks: Total expected rows (approximate): 0
0003.304 (0) Table extrn_nf3_chunks: Total rows added: 0 in 0.00 seconds
0003.306 (0) Table extrn_nf3_chunks: finishing file (backup_2019-11-06-1437_Espace_Extranet_eebc05bc1bf9-db-table-extrn_nf3_chunks.table.gz - 0.3 KB)
0003.312 (0) Table extrn_nf3_field_meta: Total expected rows (approximate): 460
0003.329 (0) Table extrn_nf3_field_meta: Total rows added: 460 in 0.02 seconds
0003.331 (0) Table extrn_nf3_field_meta: finishing file (backup_2019-11-06-1437_Espace_Extranet_eebc05bc1bf9-db-table-extrn_nf3_field_meta.table.gz - 4.1 KB)
0003.337 (0) Table extrn_nf3_fields: Total expected rows (approximate): 16
0003.342 (0) Table extrn_nf3_fields: Total rows added: 18 in 0.00 seconds
0003.343 (0) Table extrn_nf3_fields: finishing file (backup_2019-11-06-1437_Espace_Extranet_eebc05bc1bf9-db-table-extrn_nf3_fields.table.gz - 0.8 KB)
0003.350 (0) Table extrn_nf3_form_meta: Total expected rows (approximate): 166
0003.357 (0) Table extrn_nf3_form_meta: Total rows added: 166 in 0.01 seconds
0003.359 (0) Table extrn_nf3_form_meta: finishing file (backup_2019-11-06-1437_Espace_Extranet_eebc05bc1bf9-db-table-extrn_nf3_form_meta.table.gz - 2.1 KB)
0003.365 (0) Table extrn_nf3_forms: Total expected rows (approximate): 4
0003.368 (0) Table extrn_nf3_forms: Total rows added: 5 in 0.00 seconds
0003.369 (0) Table extrn_nf3_forms: finishing file (backup_2019-11-06-1437_Espace_Extranet_eebc05bc1bf9-db-table-extrn_nf3_forms.table.gz - 0.6 KB)
0003.375 (0) Table extrn_nf3_object_meta: Total expected rows (approximate): 0
0003.378 (0) Table extrn_nf3_object_meta: Total rows added: 0 in 0.00 seconds
0003.379 (0) Table extrn_nf3_object_meta: finishing file (backup_2019-11-06-1437_Espace_Extranet_eebc05bc1bf9-db-table-extrn_nf3_object_meta.table.gz - 0.3 KB)
0003.385 (0) Table extrn_nf3_objects: Total expected rows (approximate): 0
0003.388 (0) Table extrn_nf3_objects: Total rows added: 0 in 0.00 seconds
0003.390 (0) Table extrn_nf3_objects: finishing file (backup_2019-11-06-1437_Espace_Extranet_eebc05bc1bf9-db-table-extrn_nf3_objects.table.gz - 0.3 KB)
0003.396 (0) Table extrn_nf3_relationships: Total expected rows (approximate): 0
0003.398 (0) Table extrn_nf3_relationships: Total rows added: 0 in 0.00 seconds
0003.399 (0) Table extrn_nf3_relationships: finishing file (backup_2019-11-06-1437_Espace_Extranet_eebc05bc1bf9-db-table-extrn_nf3_relationships.table.gz - 0.4 KB)
0003.405 (0) Table extrn_nf3_upgrades: Total expected rows (approximate): 5
0003.411 (0) Table extrn_nf3_upgrades: Total rows added: 5 in 0.00 seconds
0003.413 (0) Table extrn_nf3_upgrades: finishing file (backup_2019-11-06-1437_Espace_Extranet_eebc05bc1bf9-db-table-extrn_nf3_upgrades.table.gz - 3.9 KB)
0003.419 (0) Table extrn_ngg_album: Total expected rows (approximate): 0
0003.422 (0) Table extrn_ngg_album: Total rows added: 0 in 0.00 seconds
0003.423 (0) Table extrn_ngg_album: finishing file (backup_2019-11-06-1437_Espace_Extranet_eebc05bc1bf9-db-table-extrn_ngg_album.table.gz - 0.4 KB)
0003.429 (0) Table extrn_ngg_gallery: Total expected rows (approximate): 16
0003.432 (0) Table extrn_ngg_gallery: Total rows added: 16 in 0.00 seconds
0003.434 (0) Table extrn_ngg_gallery: finishing file (backup_2019-11-06-1437_Espace_Extranet_eebc05bc1bf9-db-table-extrn_ngg_gallery.table.gz - 0.6 KB)
0003.454 (0) Table extrn_ngg_pictures: Total expected rows (approximate): 16
0003.458 (0) Table extrn_ngg_pictures: Total rows added: 18 in 0.00 seconds
0003.460 (0) Table extrn_ngg_pictures: finishing file (backup_2019-11-06-1437_Espace_Extranet_eebc05bc1bf9-db-table-extrn_ngg_pictures.table.gz - 3.1 KB)
0003.490 (0) Table extrn_pmxi_files: Total expected rows (approximate): 0
0003.493 (0) Table extrn_pmxi_files: Total rows added: 1 in 0.00 seconds
0003.494 (0) Table extrn_pmxi_files: finishing file (backup_2019-11-06-1437_Espace_Extranet_eebc05bc1bf9-db-table-extrn_pmxi_files.table.gz - 0.5 KB)
0003.535 (0) Table extrn_pmxi_history: Total expected rows (approximate): 0
0003.538 (0) Table extrn_pmxi_history: Total rows added: 1 in 0.00 seconds
0003.539 (0) Table extrn_pmxi_history: finishing file (backup_2019-11-06-1437_Espace_Extranet_eebc05bc1bf9-db-table-extrn_pmxi_history.table.gz - 0.5 KB)
0003.550 (0) Table extrn_pmxi_images: Total expected rows (approximate): 0
0003.552 (0) Table extrn_pmxi_images: Total rows added: 0 in 0.00 seconds
0003.554 (0) Table extrn_pmxi_images: finishing file (backup_2019-11-06-1437_Espace_Extranet_eebc05bc1bf9-db-table-extrn_pmxi_images.table.gz - 0.3 KB)
0003.564 (0) Table extrn_pmxi_imports: Total expected rows (approximate): 0
0003.568 (0) Table extrn_pmxi_imports: Total rows added: 1 in 0.00 seconds
0003.569 (0) Table extrn_pmxi_imports: finishing file (backup_2019-11-06-1437_Espace_Extranet_eebc05bc1bf9-db-table-extrn_pmxi_imports.table.gz - 2.4 KB)
0003.580 (0) Table extrn_pmxi_posts: Total expected rows (approximate): 69
0003.585 (0) Table extrn_pmxi_posts: Total rows added: 69 in 0.00 seconds
0003.586 (0) Table extrn_pmxi_posts: finishing file (backup_2019-11-06-1437_Espace_Extranet_eebc05bc1bf9-db-table-extrn_pmxi_posts.table.gz - 1.9 KB)
0003.660 (0) Table extrn_pmxi_templates: Total expected rows (approximate): 0
0003.663 (0) Table extrn_pmxi_templates: Total rows added: 0 in 0.00 seconds
0003.664 (0) Table extrn_pmxi_templates: finishing file (backup_2019-11-06-1437_Espace_Extranet_eebc05bc1bf9-db-table-extrn_pmxi_templates.table.gz - 0.4 KB)
0003.669 (0) Table extrn_redirection_404: Total expected rows (approximate): 47
0003.673 (0) Table extrn_redirection_404: Total rows added: 47 in 0.00 seconds
0003.675 (0) Table extrn_redirection_404: finishing file (backup_2019-11-06-1437_Espace_Extranet_eebc05bc1bf9-db-table-extrn_redirection_404.table.gz - 1.4 KB)
0003.683 (0) Table extrn_redirection_groups: Total expected rows (approximate): 2
0003.685 (0) Table extrn_redirection_groups: Total rows added: 2 in 0.00 seconds
0003.687 (0) Table extrn_redirection_groups: finishing file (backup_2019-11-06-1437_Espace_Extranet_eebc05bc1bf9-db-table-extrn_redirection_groups.table.gz - 0.5 KB)
0003.691 (0) Table extrn_redirection_items: Total expected rows (approximate): 12
0003.695 (0) Table extrn_redirection_items: Total rows added: 12 in 0.00 seconds
0003.696 (0) Table extrn_redirection_items: finishing file (backup_2019-11-06-1437_Espace_Extranet_eebc05bc1bf9-db-table-extrn_redirection_items.table.gz - 1 KB)
0003.701 (0) Table extrn_redirection_logs: Total expected rows (approximate): 1
0003.704 (0) Table extrn_redirection_logs: Total rows added: 1 in 0.00 seconds
0003.706 (0) Table extrn_redirection_logs: finishing file (backup_2019-11-06-1437_Espace_Extranet_eebc05bc1bf9-db-table-extrn_redirection_logs.table.gz - 0.6 KB)
0003.712 (0) Table extrn_redirects: Total expected rows (approximate): 0
0003.715 (0) Table extrn_redirects: Total rows added: 1 in 0.00 seconds
0003.716 (0) Table extrn_redirects: finishing file (backup_2019-11-06-1437_Espace_Extranet_eebc05bc1bf9-db-table-extrn_redirects.table.gz - 0.4 KB)
0003.722 (0) Table extrn_relevanssi: Total expected rows (approximate): 3299
0004.227 (0) Table extrn_relevanssi: Total rows added: 3335 in 0.50 seconds
0004.229 (0) Table extrn_relevanssi: finishing file (backup_2019-11-06-1437_Espace_Extranet_eebc05bc1bf9-db-table-extrn_relevanssi.table.gz - 21.4 KB)
0004.235 (0) Table extrn_relevanssi_log: Total expected rows (approximate): 0
0004.238 (0) Table extrn_relevanssi_log: Total rows added: 0 in 0.00 seconds
0004.239 (0) Table extrn_relevanssi_log: finishing file (backup_2019-11-06-1437_Espace_Extranet_eebc05bc1bf9-db-table-extrn_relevanssi_log.table.gz - 0.4 KB)
0004.244 (0) Table extrn_relevanssi_stopwords: Total expected rows (approximate): 725
0004.257 (0) Table extrn_relevanssi_stopwords: Total rows added: 725 in 0.01 seconds
0004.259 (0) Table extrn_relevanssi_stopwords: finishing file (backup_2019-11-06-1437_Espace_Extranet_eebc05bc1bf9-db-table-extrn_relevanssi_stopwords.table.gz - 2.6 KB)
0004.265 (0) Table extrn_sm_sessions: Total expected rows (approximate): 0
0004.268 (0) Table extrn_sm_sessions: Total rows added: 0 in 0.00 seconds
0004.269 (0) Table extrn_sm_sessions: finishing file (backup_2019-11-06-1437_Espace_Extranet_eebc05bc1bf9-db-table-extrn_sm_sessions.table.gz - 0.4 KB)
0004.297 (0) Table extrn_statistics_exclusions: Total expected rows (approximate): 0
0004.299 (0) Table extrn_statistics_exclusions: Total rows added: 0 in 0.00 seconds
0004.301 (0) Table extrn_statistics_exclusions: finishing file (backup_2019-11-06-1437_Espace_Extranet_eebc05bc1bf9-db-table-extrn_statistics_exclusions.table.gz - 0.3 KB)
0004.306 (0) Table extrn_statistics_historical: Total expected rows (approximate): 0
0004.308 (0) Table extrn_statistics_historical: Total rows added: 0 in 0.00 seconds
0004.309 (0) Table extrn_statistics_historical: finishing file (backup_2019-11-06-1437_Espace_Extranet_eebc05bc1bf9-db-table-extrn_statistics_historical.table.gz - 0.3 KB)
0004.316 (0) Table extrn_statistics_pages: Total expected rows (approximate): 0
0004.318 (0) Table extrn_statistics_pages: Total rows added: 0 in 0.00 seconds
0004.319 (0) Table extrn_statistics_pages: finishing file (backup_2019-11-06-1437_Espace_Extranet_eebc05bc1bf9-db-table-extrn_statistics_pages.table.gz - 0.4 KB)
0004.348 (0) Table extrn_statistics_search: Total expected rows (approximate): 0
0004.350 (0) Table extrn_statistics_search: Total rows added: 0 in 0.00 seconds
0004.352 (0) Table extrn_statistics_search: finishing file (backup_2019-11-06-1437_Espace_Extranet_eebc05bc1bf9-db-table-extrn_statistics_search.table.gz - 0.3 KB)
0004.357 (0) Table extrn_statistics_useronline: Total expected rows (approximate): 0
0004.359 (0) Table extrn_statistics_useronline: Total rows added: 0 in 0.00 seconds
0004.360 (0) Table extrn_statistics_useronline: finishing file (backup_2019-11-06-1437_Espace_Extranet_eebc05bc1bf9-db-table-extrn_statistics_useronline.table.gz - 0.4 KB)
0004.365 (0) Table extrn_statistics_visit: Total expected rows (approximate): 2
0004.368 (0) Table extrn_statistics_visit: Total rows added: 2 in 0.00 seconds
0004.370 (0) Table extrn_statistics_visit: finishing file (backup_2019-11-06-1437_Espace_Extranet_eebc05bc1bf9-db-table-extrn_statistics_visit.table.gz - 0.4 KB)
0004.375 (0) Table extrn_statistics_visitor: Total expected rows (approximate): 1
0004.377 (0) Table extrn_statistics_visitor: Total rows added: 1 in 0.00 seconds
0004.379 (0) Table extrn_statistics_visitor: finishing file (backup_2019-11-06-1437_Espace_Extranet_eebc05bc1bf9-db-table-extrn_statistics_visitor.table.gz - 0.6 KB)
0004.407 (0) Table extrn_supracsvparser_plugin_presets: Total expected rows (approximate): 0
0004.409 (0) Table extrn_supracsvparser_plugin_presets: Total rows added: 0 in 0.00 seconds
0004.410 (0) Table extrn_supracsvparser_plugin_presets: finishing file (backup_2019-11-06-1437_Espace_Extranet_eebc05bc1bf9-db-table-extrn_supracsvparser_plugin_presets.table.gz - 0.3 KB)
0004.417 (0) Table extrn_testutf1csv: Total expected rows (approximate): 90
0004.429 (0) Table extrn_testutf1csv: Total rows added: 90 in 0.01 seconds
0004.432 (0) Table extrn_testutf1csv: finishing file (backup_2019-11-06-1437_Espace_Extranet_eebc05bc1bf9-db-table-extrn_testutf1csv.table.gz - 4.6 KB)
0004.438 (0) Table extrn_testutfcsv: Total expected rows (approximate): 0
0004.441 (0) Table extrn_testutfcsv: Total rows added: 0 in 0.00 seconds
0004.443 (0) Table extrn_testutfcsv: finishing file (backup_2019-11-06-1437_Espace_Extranet_eebc05bc1bf9-db-table-extrn_testutfcsv.table.gz - 0.5 KB)
0004.449 (0) Table extrn_todolists_iptask: Total expected rows (approximate): 0
0004.452 (0) Table extrn_todolists_iptask: Total rows added: 0 in 0.00 seconds
0004.454 (0) Table extrn_todolists_iptask: finishing file (backup_2019-11-06-1437_Espace_Extranet_eebc05bc1bf9-db-table-extrn_todolists_iptask.table.gz - 0.3 KB)
0004.461 (0) Table extrn_todolists_usertask: Total expected rows (approximate): 0
0004.473 (0) Table extrn_todolists_usertask: Total rows added: 0 in 0.01 seconds
0004.474 (0) Table extrn_todolists_usertask: finishing file (backup_2019-11-06-1437_Espace_Extranet_eebc05bc1bf9-db-table-extrn_todolists_usertask.table.gz - 0.3 KB)
0004.480 (0) Table extrn_toolset_post_guid_id: Total expected rows (approximate): 0
0004.506 (0) Table extrn_toolset_post_guid_id: Total rows added: 0 in 0.02 seconds
0004.508 (0) Table extrn_toolset_post_guid_id: finishing file (backup_2019-11-06-1437_Espace_Extranet_eebc05bc1bf9-db-table-extrn_toolset_post_guid_id.table.gz - 0.3 KB)
0004.513 (0) Table extrn_uam_accessgroup_to_object: Total expected rows (approximate): 102
0004.519 (0) Table extrn_uam_accessgroup_to_object: Total rows added: 106 in 0.00 seconds
0004.521 (0) Table extrn_uam_accessgroup_to_object: finishing file (backup_2019-11-06-1437_Espace_Extranet_eebc05bc1bf9-db-table-extrn_uam_accessgroup_to_object.table.gz - 0.9 KB)
0004.526 (0) Table extrn_uam_accessgroups: Total expected rows (approximate): 25
0004.529 (0) Table extrn_uam_accessgroups: Total rows added: 27 in 0.00 seconds
0004.530 (0) Table extrn_uam_accessgroups: finishing file (backup_2019-11-06-1437_Espace_Extranet_eebc05bc1bf9-db-table-extrn_uam_accessgroups.table.gz - 1 KB)
0004.537 (0) Table extrn_webtechglobal_schedule: Total expected rows (approximate): 0
0004.541 (0) Table extrn_webtechglobal_schedule: Total rows added: 0 in 0.00 seconds
0004.549 (0) Table extrn_webtechglobal_schedule: finishing file (backup_2019-11-06-1437_Espace_Extranet_eebc05bc1bf9-db-table-extrn_webtechglobal_schedule.table.gz - 0.5 KB)
0004.554 (0) Table extrn_wise_chat_actions: Total expected rows (approximate): 88
0004.558 (0) Table extrn_wise_chat_actions: Total rows added: 91 in 0.00 seconds
0004.560 (0) Table extrn_wise_chat_actions: finishing file (backup_2019-11-06-1437_Espace_Extranet_eebc05bc1bf9-db-table-extrn_wise_chat_actions.table.gz - 1.4 KB)
0004.565 (0) Table extrn_wise_chat_bans: Total expected rows (approximate): 0
0004.567 (0) Table extrn_wise_chat_bans: Total rows added: 0 in 0.00 seconds
0004.568 (0) Table extrn_wise_chat_bans: finishing file (backup_2019-11-06-1437_Espace_Extranet_eebc05bc1bf9-db-table-extrn_wise_chat_bans.table.gz - 0.3 KB)
0004.574 (0) Table extrn_wise_chat_channel_users: Total expected rows (approximate): 1
0004.577 (0) Table extrn_wise_chat_channel_users: Total rows added: 1 in 0.00 seconds
0004.578 (0) Table extrn_wise_chat_channel_users: finishing file (backup_2019-11-06-1437_Espace_Extranet_eebc05bc1bf9-db-table-extrn_wise_chat_channel_users.table.gz - 0.4 KB)
0004.583 (0) Table extrn_wise_chat_channels: Total expected rows (approximate): 9
0004.586 (0) Table extrn_wise_chat_channels: Total rows added: 10 in 0.00 seconds
0004.587 (0) Table extrn_wise_chat_channels: finishing file (backup_2019-11-06-1437_Espace_Extranet_eebc05bc1bf9-db-table-extrn_wise_chat_channels.table.gz - 0.5 KB)
0004.592 (0) Table extrn_wise_chat_kicks: Total expected rows (approximate): 0
0004.595 (0) Table extrn_wise_chat_kicks: Total rows added: 0 in 0.00 seconds
0004.596 (0) Table extrn_wise_chat_kicks: finishing file (backup_2019-11-06-1437_Espace_Extranet_eebc05bc1bf9-db-table-extrn_wise_chat_kicks.table.gz - 0.3 KB)
0004.601 (0) Table extrn_wise_chat_messages: Total expected rows (approximate): 3
0004.604 (0) Table extrn_wise_chat_messages: Total rows added: 4 in 0.00 seconds
0004.606 (0) Table extrn_wise_chat_messages: finishing file (backup_2019-11-06-1437_Espace_Extranet_eebc05bc1bf9-db-table-extrn_wise_chat_messages.table.gz - 0.5 KB)
0004.611 (0) Table extrn_wise_chat_users: Total expected rows (approximate): 126
0004.621 (0) Table extrn_wise_chat_users: Total rows added: 177 in 0.01 seconds
0004.623 (0) Table extrn_wise_chat_users: finishing file (backup_2019-11-06-1437_Espace_Extranet_eebc05bc1bf9-db-table-extrn_wise_chat_users.table.gz - 4.2 KB)
0004.630 (0) Table extrn_wpfront_ure_content_shortcodes: Total expected rows (approximate): 0
0004.632 (0) Table extrn_wpfront_ure_content_shortcodes: Total rows added: 0 in 0.00 seconds
0004.633 (0) Table extrn_wpfront_ure_content_shortcodes: finishing file (backup_2019-11-06-1437_Espace_Extranet_eebc05bc1bf9-db-table-extrn_wpfront_ure_content_shortcodes.table.gz - 0.3 KB)
0004.640 (0) Table extrn_wpfront_ure_login_redirect: Total expected rows (approximate): 0
0004.643 (0) Table extrn_wpfront_ure_login_redirect: Total rows added: 0 in 0.00 seconds
0004.644 (0) Table extrn_wpfront_ure_login_redirect: finishing file (backup_2019-11-06-1437_Espace_Extranet_eebc05bc1bf9-db-table-extrn_wpfront_ure_login_redirect.table.gz - 0.4 KB)
0004.649 (0) Table extrn_wpfront_ure_menu_editor: Total expected rows (approximate): 0
0004.652 (0) Table extrn_wpfront_ure_menu_editor: Total rows added: 0 in 0.00 seconds
0004.653 (0) Table extrn_wpfront_ure_menu_editor: finishing file (backup_2019-11-06-1437_Espace_Extranet_eebc05bc1bf9-db-table-extrn_wpfront_ure_menu_editor.table.gz - 0.3 KB)
0004.658 (0) Table extrn_wpfront_ure_options: Total expected rows (approximate): 40
0004.662 (0) Table extrn_wpfront_ure_options: Total rows added: 44 in 0.00 seconds
0004.664 (0) Table extrn_wpfront_ure_options: finishing file (backup_2019-11-06-1437_Espace_Extranet_eebc05bc1bf9-db-table-extrn_wpfront_ure_options.table.gz - 3.3 KB)
0004.669 (0) Table extrn_wpfront_ure_post_type_permissions: Total expected rows (approximate): 105
0004.674 (0) Table extrn_wpfront_ure_post_type_permissions: Total rows added: 115 in 0.00 seconds
0004.676 (0) Table extrn_wpfront_ure_post_type_permissions: finishing file (backup_2019-11-06-1437_Espace_Extranet_eebc05bc1bf9-db-table-extrn_wpfront_ure_post_type_permissions.table.gz - 1.3 KB)
0004.679 (0) Skipping table (lacks our prefix (extrn_)): smackuci_events
0004.681 (0) Skipping table (lacks our prefix (extrn_)): smackuci_history
0004.682 (0) Skipping table (lacks our prefix (extrn_)): wp_ultimate_csv_importer_log_values
0004.684 (0) Skipping table (lacks our prefix (extrn_)): wp_ultimate_csv_importer_manageshortcodes
0004.686 (0) Skipping table (lacks our prefix (extrn_)): wp_ultimate_csv_importer_shortcodes_statusrel
0004.690 (0) backup_2019-11-06-1437_Espace_Extranet_eebc05bc1bf9-db-table-extrn_options.table.gz (1/152): adding to final database dump
0005.344 (0) backup_2019-11-06-1437_Espace_Extranet_eebc05bc1bf9-db-table-extrn_users.table.gz (2/152): adding to final database dump
0005.346 (0) backup_2019-11-06-1437_Espace_Extranet_eebc05bc1bf9-db-table-extrn_usermeta.table.gz (3/152): adding to final database dump
0005.354 (0) backup_2019-11-06-1437_Espace_Extranet_eebc05bc1bf9-db-table-extrn_commentmeta.table.gz (4/152): adding to final database dump
0005.356 (0) backup_2019-11-06-1437_Espace_Extranet_eebc05bc1bf9-db-table-extrn_comments.table.gz (5/152): adding to final database dump
0005.358 (0) backup_2019-11-06-1437_Espace_Extranet_eebc05bc1bf9-db-table-extrn_links.table.gz (6/152): adding to final database dump
0005.359 (0) backup_2019-11-06-1437_Espace_Extranet_eebc05bc1bf9-db-table-extrn_postmeta.table.gz (7/152): adding to final database dump
0005.469 (0) backup_2019-11-06-1437_Espace_Extranet_eebc05bc1bf9-db-table-extrn_posts.table.gz (8/152): adding to final database dump
0005.520 (0) backup_2019-11-06-1437_Espace_Extranet_eebc05bc1bf9-db-table-extrn_term_relationships.table.gz (9/152): adding to final database dump
0005.525 (0) backup_2019-11-06-1437_Espace_Extranet_eebc05bc1bf9-db-table-extrn_term_taxonomy.table.gz (10/152): adding to final database dump
0005.527 (0) backup_2019-11-06-1437_Espace_Extranet_eebc05bc1bf9-db-table-extrn_termmeta.table.gz (11/152): adding to final database dump
0005.531 (0) backup_2019-11-06-1437_Espace_Extranet_eebc05bc1bf9-db-table-extrn_terms.table.gz (12/152): adding to final database dump
0005.535 (0) backup_2019-11-06-1437_Espace_Extranet_eebc05bc1bf9-db-table-extrn_ahm_download_stats.table.gz (13/152): adding to final database dump
0005.536 (0) backup_2019-11-06-1437_Espace_Extranet_eebc05bc1bf9-db-table-extrn_ahm_emails.table.gz (14/152): adding to final database dump
0005.538 (0) backup_2019-11-06-1437_Espace_Extranet_eebc05bc1bf9-db-table-extrn_alm.table.gz (15/152): adding to final database dump
0005.539 (0) backup_2019-11-06-1437_Espace_Extranet_eebc05bc1bf9-db-table-extrn_alm_unlimited.table.gz (16/152): adding to final database dump
0005.541 (0) backup_2019-11-06-1437_Espace_Extranet_eebc05bc1bf9-db-table-extrn_bookacti_activities.table.gz (17/152): adding to final database dump
0005.542 (0) backup_2019-11-06-1437_Espace_Extranet_eebc05bc1bf9-db-table-extrn_bookacti_booking_groups.table.gz (18/152): adding to final database dump
0005.544 (0) backup_2019-11-06-1437_Espace_Extranet_eebc05bc1bf9-db-table-extrn_bookacti_bookings.table.gz (19/152): adding to final database dump
0005.545 (0) backup_2019-11-06-1437_Espace_Extranet_eebc05bc1bf9-db-table-extrn_bookacti_event_groups.table.gz (20/152): adding to final database dump
0005.547 (0) backup_2019-11-06-1437_Espace_Extranet_eebc05bc1bf9-db-table-extrn_bookacti_events.table.gz (21/152): adding to final database dump
0005.548 (0) backup_2019-11-06-1437_Espace_Extranet_eebc05bc1bf9-db-table-extrn_bookacti_exceptions.table.gz (22/152): adding to final database dump
0005.549 (0) backup_2019-11-06-1437_Espace_Extranet_eebc05bc1bf9-db-table-extrn_bookacti_form_fields.table.gz (23/152): adding to final database dump
0005.551 (0) backup_2019-11-06-1437_Espace_Extranet_eebc05bc1bf9-db-table-extrn_bookacti_forms.table.gz (24/152): adding to final database dump
0005.552 (0) backup_2019-11-06-1437_Espace_Extranet_eebc05bc1bf9-db-table-extrn_bookacti_group_categories.table.gz (25/152): adding to final database dump
0005.553 (0) backup_2019-11-06-1437_Espace_Extranet_eebc05bc1bf9-db-table-extrn_bookacti_groups_events.table.gz (26/152): adding to final database dump
0005.554 (0) backup_2019-11-06-1437_Espace_Extranet_eebc05bc1bf9-db-table-extrn_bookacti_meta.table.gz (27/152): adding to final database dump
0005.556 (0) backup_2019-11-06-1437_Espace_Extranet_eebc05bc1bf9-db-table-extrn_bookacti_permissions.table.gz (28/152): adding to final database dump
0005.557 (0) backup_2019-11-06-1437_Espace_Extranet_eebc05bc1bf9-db-table-extrn_bookacti_templates.table.gz (29/152): adding to final database dump
0005.558 (0) backup_2019-11-06-1437_Espace_Extranet_eebc05bc1bf9-db-table-extrn_bookacti_templates_activities.table.gz (30/152): adding to final database dump
0005.560 (0) backup_2019-11-06-1437_Espace_Extranet_eebc05bc1bf9-db-table-extrn_booking.table.gz (31/152): adding to final database dump
0005.561 (0) backup_2019-11-06-1437_Espace_Extranet_eebc05bc1bf9-db-table-extrn_bookingdates.table.gz (32/152): adding to final database dump
0005.562 (0) backup_2019-11-06-1437_Espace_Extranet_eebc05bc1bf9-db-table-extrn_bwg_album.table.gz (33/152): adding to final database dump
0005.563 (0) backup_2019-11-06-1437_Espace_Extranet_eebc05bc1bf9-db-table-extrn_bwg_album_gallery.table.gz (34/152): adding to final database dump
0005.565 (0) backup_2019-11-06-1437_Espace_Extranet_eebc05bc1bf9-db-table-extrn_bwg_file_paths.table.gz (35/152): adding to final database dump
0005.566 (0) backup_2019-11-06-1437_Espace_Extranet_eebc05bc1bf9-db-table-extrn_bwg_gallery.table.gz (36/152): adding to final database dump
0005.568 (0) backup_2019-11-06-1437_Espace_Extranet_eebc05bc1bf9-db-table-extrn_bwg_image.table.gz (37/152): adding to final database dump
0005.569 (0) backup_2019-11-06-1437_Espace_Extranet_eebc05bc1bf9-db-table-extrn_bwg_image_comment.table.gz (38/152): adding to final database dump
0005.570 (0) backup_2019-11-06-1437_Espace_Extranet_eebc05bc1bf9-db-table-extrn_bwg_image_rate.table.gz (39/152): adding to final database dump
0005.572 (0) backup_2019-11-06-1437_Espace_Extranet_eebc05bc1bf9-db-table-extrn_bwg_image_tag.table.gz (40/152): adding to final database dump
0005.573 (0) backup_2019-11-06-1437_Espace_Extranet_eebc05bc1bf9-db-table-extrn_bwg_shortcode.table.gz (41/152): adding to final database dump
0005.574 (0) backup_2019-11-06-1437_Espace_Extranet_eebc05bc1bf9-db-table-extrn_bwg_theme.table.gz (42/152): adding to final database dump
0005.577 (0) backup_2019-11-06-1437_Espace_Extranet_eebc05bc1bf9-db-table-extrn_c2pprojects.table.gz (43/152): adding to final database dump
0005.579 (0) backup_2019-11-06-1437_Espace_Extranet_eebc05bc1bf9-db-table-extrn_c2psources.table.gz (44/152): adding to final database dump
0005.580 (0) backup_2019-11-06-1437_Espace_Extranet_eebc05bc1bf9-db-table-extrn_cfs_sessions.table.gz (45/152): adding to final database dump
0005.582 (0) backup_2019-11-06-1437_Espace_Extranet_eebc05bc1bf9-db-table-extrn_cfs_values.table.gz (46/152): adding to final database dump
0005.584 (0) backup_2019-11-06-1437_Espace_Extranet_eebc05bc1bf9-db-table-extrn_connections.table.gz (47/152): adding to final database dump
0005.585 (0) backup_2019-11-06-1437_Espace_Extranet_eebc05bc1bf9-db-table-extrn_connections_address.table.gz (48/152): adding to final database dump
0005.587 (0) backup_2019-11-06-1437_Espace_Extranet_eebc05bc1bf9-db-table-extrn_connections_date.table.gz (49/152): adding to final database dump
0005.589 (0) backup_2019-11-06-1437_Espace_Extranet_eebc05bc1bf9-db-table-extrn_connections_email.table.gz (50/152): adding to final database dump
0005.590 (0) backup_2019-11-06-1437_Espace_Extranet_eebc05bc1bf9-db-table-extrn_connections_link.table.gz (51/152): adding to final database dump
0005.591 (0) backup_2019-11-06-1437_Espace_Extranet_eebc05bc1bf9-db-table-extrn_connections_messenger.table.gz (52/152): adding to final database dump
0005.592 (0) backup_2019-11-06-1437_Espace_Extranet_eebc05bc1bf9-db-table-extrn_connections_meta.table.gz (53/152): adding to final database dump
0005.594 (0) backup_2019-11-06-1437_Espace_Extranet_eebc05bc1bf9-db-table-extrn_connections_phone.table.gz (54/152): adding to final database dump
0005.595 (0) backup_2019-11-06-1437_Espace_Extranet_eebc05bc1bf9-db-table-extrn_connections_social.table.gz (55/152): adding to final database dump
0005.596 (0) backup_2019-11-06-1437_Espace_Extranet_eebc05bc1bf9-db-table-extrn_connections_term_meta.table.gz (56/152): adding to final database dump
0005.598 (0) backup_2019-11-06-1437_Espace_Extranet_eebc05bc1bf9-db-table-extrn_connections_term_relationships.table.gz (57/152): adding to final database dump
0005.599 (0) backup_2019-11-06-1437_Espace_Extranet_eebc05bc1bf9-db-table-extrn_connections_term_taxonomy.table.gz (58/152): adding to final database dump
0005.600 (0) backup_2019-11-06-1437_Espace_Extranet_eebc05bc1bf9-db-table-extrn_connections_terms.table.gz (59/152): adding to final database dump
0005.601 (0) backup_2019-11-06-1437_Espace_Extranet_eebc05bc1bf9-db-table-extrn_cpk_wpcsv_export_queue.table.gz (60/152): adding to final database dump
0005.603 (0) backup_2019-11-06-1437_Espace_Extranet_eebc05bc1bf9-db-table-extrn_cpk_wpcsv_log.table.gz (61/152): adding to final database dump
0005.604 (0) backup_2019-11-06-1437_Espace_Extranet_eebc05bc1bf9-db-table-extrn_dlm_order.table.gz (62/152): adding to final database dump
0005.605 (0) backup_2019-11-06-1437_Espace_Extranet_eebc05bc1bf9-db-table-extrn_dlm_order_customer.table.gz (63/152): adding to final database dump
0005.607 (0) backup_2019-11-06-1437_Espace_Extranet_eebc05bc1bf9-db-table-extrn_dlm_order_item.table.gz (64/152): adding to final database dump
0005.608 (0) backup_2019-11-06-1437_Espace_Extranet_eebc05bc1bf9-db-table-extrn_dlm_order_transaction.table.gz (65/152): adding to final database dump
0005.609 (0) backup_2019-11-06-1437_Espace_Extranet_eebc05bc1bf9-db-table-extrn_dlm_session.table.gz (66/152): adding to final database dump
0005.611 (0) backup_2019-11-06-1437_Espace_Extranet_eebc05bc1bf9-db-table-extrn_download_log.table.gz (67/152): adding to final database dump
0005.612 (0) backup_2019-11-06-1437_Espace_Extranet_eebc05bc1bf9-db-table-extrn_em_bookings.table.gz (68/152): adding to final database dump
0005.613 (0) backup_2019-11-06-1437_Espace_Extranet_eebc05bc1bf9-db-table-extrn_em_events.table.gz (69/152): adding to final database dump
0005.615 (0) backup_2019-11-06-1437_Espace_Extranet_eebc05bc1bf9-db-table-extrn_em_locations.table.gz (70/152): adding to final database dump
0005.617 (0) backup_2019-11-06-1437_Espace_Extranet_eebc05bc1bf9-db-table-extrn_em_meta.table.gz (71/152): adding to final database dump
0005.618 (0) backup_2019-11-06-1437_Espace_Extranet_eebc05bc1bf9-db-table-extrn_em_tickets.table.gz (72/152): adding to final database dump
0005.619 (0) backup_2019-11-06-1437_Espace_Extranet_eebc05bc1bf9-db-table-extrn_em_tickets_bookings.table.gz (73/152): adding to final database dump
0005.621 (0) backup_2019-11-06-1437_Espace_Extranet_eebc05bc1bf9-db-table-extrn_fb3d_pages.table.gz (74/152): adding to final database dump
0005.622 (0) backup_2019-11-06-1437_Espace_Extranet_eebc05bc1bf9-db-table-extrn_gg_attributes.table.gz (75/152): adding to final database dump
0005.623 (0) backup_2019-11-06-1437_Espace_Extranet_eebc05bc1bf9-db-table-extrn_gg_galleries.table.gz (76/152): adding to final database dump
0005.625 (0) backup_2019-11-06-1437_Espace_Extranet_eebc05bc1bf9-db-table-extrn_gg_galleries_resources.table.gz (77/152): adding to final database dump
0005.626 (0) backup_2019-11-06-1437_Espace_Extranet_eebc05bc1bf9-db-table-extrn_gg_photos.table.gz (78/152): adding to final database dump
0005.627 (0) backup_2019-11-06-1437_Espace_Extranet_eebc05bc1bf9-db-table-extrn_gg_settings_sets.table.gz (79/152): adding to final database dump
0005.629 (0) backup_2019-11-06-1437_Espace_Extranet_eebc05bc1bf9-db-table-extrn_gg_tags.table.gz (80/152): adding to final database dump
0005.630 (0) backup_2019-11-06-1437_Espace_Extranet_eebc05bc1bf9-db-table-extrn_gp_glossaries.table.gz (81/152): adding to final database dump
0005.632 (0) backup_2019-11-06-1437_Espace_Extranet_eebc05bc1bf9-db-table-extrn_gp_glossary_entries.table.gz (82/152): adding to final database dump
0005.633 (0) backup_2019-11-06-1437_Espace_Extranet_eebc05bc1bf9-db-table-extrn_gp_meta.table.gz (83/152): adding to final database dump
0005.634 (0) backup_2019-11-06-1437_Espace_Extranet_eebc05bc1bf9-db-table-extrn_gp_originals.table.gz (84/152): adding to final database dump
0005.635 (0) backup_2019-11-06-1437_Espace_Extranet_eebc05bc1bf9-db-table-extrn_gp_permissions.table.gz (85/152): adding to final database dump
0005.637 (0) backup_2019-11-06-1437_Espace_Extranet_eebc05bc1bf9-db-table-extrn_gp_projects.table.gz (86/152): adding to final database dump
0005.638 (0) backup_2019-11-06-1437_Espace_Extranet_eebc05bc1bf9-db-table-extrn_gp_translation_sets.table.gz (87/152): adding to final database dump
0005.639 (0) backup_2019-11-06-1437_Espace_Extranet_eebc05bc1bf9-db-table-extrn_gp_translations.table.gz (88/152): adding to final database dump
0005.641 (0) backup_2019-11-06-1437_Espace_Extranet_eebc05bc1bf9-db-table-extrn_importer_files.table.gz (89/152): adding to final database dump
0005.643 (0) backup_2019-11-06-1437_Espace_Extranet_eebc05bc1bf9-db-table-extrn_importer_log.table.gz (90/152): adding to final database dump
0005.644 (0) backup_2019-11-06-1437_Espace_Extranet_eebc05bc1bf9-db-table-extrn_nf3_action_meta.table.gz (91/152): adding to final database dump
0005.647 (0) backup_2019-11-06-1437_Espace_Extranet_eebc05bc1bf9-db-table-extrn_nf3_actions.table.gz (92/152): adding to final database dump
0005.649 (0) backup_2019-11-06-1437_Espace_Extranet_eebc05bc1bf9-db-table-extrn_nf3_chunks.table.gz (93/152): adding to final database dump
0005.650 (0) backup_2019-11-06-1437_Espace_Extranet_eebc05bc1bf9-db-table-extrn_nf3_field_meta.table.gz (94/152): adding to final database dump
0005.655 (0) backup_2019-11-06-1437_Espace_Extranet_eebc05bc1bf9-db-table-extrn_nf3_fields.table.gz (95/152): adding to final database dump
0005.657 (0) backup_2019-11-06-1437_Espace_Extranet_eebc05bc1bf9-db-table-extrn_nf3_form_meta.table.gz (96/152): adding to final database dump
0005.660 (0) backup_2019-11-06-1437_Espace_Extranet_eebc05bc1bf9-db-table-extrn_nf3_forms.table.gz (97/152): adding to final database dump
0005.661 (0) backup_2019-11-06-1437_Espace_Extranet_eebc05bc1bf9-db-table-extrn_nf3_object_meta.table.gz (98/152): adding to final database dump
0005.663 (0) backup_2019-11-06-1437_Espace_Extranet_eebc05bc1bf9-db-table-extrn_nf3_objects.table.gz (99/152): adding to final database dump
0005.666 (0) backup_2019-11-06-1437_Espace_Extranet_eebc05bc1bf9-db-table-extrn_nf3_relationships.table.gz (100/152): adding to final database dump
0005.667 (0) backup_2019-11-06-1437_Espace_Extranet_eebc05bc1bf9-db-table-extrn_nf3_upgrades.table.gz (101/152): adding to final database dump
0005.670 (0) backup_2019-11-06-1437_Espace_Extranet_eebc05bc1bf9-db-table-extrn_ngg_album.table.gz (102/152): adding to final database dump
0005.672 (0) backup_2019-11-06-1437_Espace_Extranet_eebc05bc1bf9-db-table-extrn_ngg_gallery.table.gz (103/152): adding to final database dump
0005.674 (0) backup_2019-11-06-1437_Espace_Extranet_eebc05bc1bf9-db-table-extrn_ngg_pictures.table.gz (104/152): adding to final database dump
0005.675 (0) backup_2019-11-06-1437_Espace_Extranet_eebc05bc1bf9-db-table-extrn_pmxi_files.table.gz (105/152): adding to final database dump
0005.677 (0) backup_2019-11-06-1437_Espace_Extranet_eebc05bc1bf9-db-table-extrn_pmxi_history.table.gz (106/152): adding to final database dump
0005.679 (0) backup_2019-11-06-1437_Espace_Extranet_eebc05bc1bf9-db-table-extrn_pmxi_images.table.gz (107/152): adding to final database dump
0005.680 (0) backup_2019-11-06-1437_Espace_Extranet_eebc05bc1bf9-db-table-extrn_pmxi_imports.table.gz (108/152): adding to final database dump
0005.682 (0) backup_2019-11-06-1437_Espace_Extranet_eebc05bc1bf9-db-table-extrn_pmxi_posts.table.gz (109/152): adding to final database dump
0005.684 (0) backup_2019-11-06-1437_Espace_Extranet_eebc05bc1bf9-db-table-extrn_pmxi_templates.table.gz (110/152): adding to final database dump
0005.685 (0) backup_2019-11-06-1437_Espace_Extranet_eebc05bc1bf9-db-table-extrn_redirection_404.table.gz (111/152): adding to final database dump
0005.687 (0) backup_2019-11-06-1437_Espace_Extranet_eebc05bc1bf9-db-table-extrn_redirection_groups.table.gz (112/152): adding to final database dump
0005.688 (0) backup_2019-11-06-1437_Espace_Extranet_eebc05bc1bf9-db-table-extrn_redirection_items.table.gz (113/152): adding to final database dump
0005.690 (0) backup_2019-11-06-1437_Espace_Extranet_eebc05bc1bf9-db-table-extrn_redirection_logs.table.gz (114/152): adding to final database dump
0005.691 (0) backup_2019-11-06-1437_Espace_Extranet_eebc05bc1bf9-db-table-extrn_redirects.table.gz (115/152): adding to final database dump
0005.692 (0) backup_2019-11-06-1437_Espace_Extranet_eebc05bc1bf9-db-table-extrn_relevanssi.table.gz (116/152): adding to final database dump
0005.716 (0) backup_2019-11-06-1437_Espace_Extranet_eebc05bc1bf9-db-table-extrn_relevanssi_log.table.gz (117/152): adding to final database dump
0005.718 (0) backup_2019-11-06-1437_Espace_Extranet_eebc05bc1bf9-db-table-extrn_relevanssi_stopwords.table.gz (118/152): adding to final database dump
0005.722 (0) backup_2019-11-06-1437_Espace_Extranet_eebc05bc1bf9-db-table-extrn_sm_sessions.table.gz (119/152): adding to final database dump
0005.723 (0) backup_2019-11-06-1437_Espace_Extranet_eebc05bc1bf9-db-table-extrn_statistics_exclusions.table.gz (120/152): adding to final database dump
0005.725 (0) backup_2019-11-06-1437_Espace_Extranet_eebc05bc1bf9-db-table-extrn_statistics_historical.table.gz (121/152): adding to final database dump
0005.726 (0) backup_2019-11-06-1437_Espace_Extranet_eebc05bc1bf9-db-table-extrn_statistics_pages.table.gz (122/152): adding to final database dump
0005.728 (0) backup_2019-11-06-1437_Espace_Extranet_eebc05bc1bf9-db-table-extrn_statistics_search.table.gz (123/152): adding to final database dump
0005.729 (0) backup_2019-11-06-1437_Espace_Extranet_eebc05bc1bf9-db-table-extrn_statistics_useronline.table.gz (124/152): adding to final database dump
0005.730 (0) backup_2019-11-06-1437_Espace_Extranet_eebc05bc1bf9-db-table-extrn_statistics_visit.table.gz (125/152): adding to final database dump
0005.732 (0) backup_2019-11-06-1437_Espace_Extranet_eebc05bc1bf9-db-table-extrn_statistics_visitor.table.gz (126/152): adding to final database dump
0005.733 (0) backup_2019-11-06-1437_Espace_Extranet_eebc05bc1bf9-db-table-extrn_supracsvparser_plugin_presets.table.gz (127/152): adding to final database dump
0005.735 (0) backup_2019-11-06-1437_Espace_Extranet_eebc05bc1bf9-db-table-extrn_testutf1csv.table.gz (128/152): adding to final database dump
0005.737 (0) backup_2019-11-06-1437_Espace_Extranet_eebc05bc1bf9-db-table-extrn_testutfcsv.table.gz (129/152): adding to final database dump
0005.739 (0) backup_2019-11-06-1437_Espace_Extranet_eebc05bc1bf9-db-table-extrn_todolists_iptask.table.gz (130/152): adding to final database dump
0005.740 (0) backup_2019-11-06-1437_Espace_Extranet_eebc05bc1bf9-db-table-extrn_todolists_usertask.table.gz (131/152): adding to final database dump
0005.742 (0) backup_2019-11-06-1437_Espace_Extranet_eebc05bc1bf9-db-table-extrn_toolset_post_guid_id.table.gz (132/152): adding to final database dump
0005.743 (0) backup_2019-11-06-1437_Espace_Extranet_eebc05bc1bf9-db-table-extrn_uam_accessgroup_to_object.table.gz (133/152): adding to final database dump
0005.746 (0) backup_2019-11-06-1437_Espace_Extranet_eebc05bc1bf9-db-table-extrn_uam_accessgroups.table.gz (134/152): adding to final database dump
0005.748 (0) backup_2019-11-06-1437_Espace_Extranet_eebc05bc1bf9-db-table-extrn_webtechglobal_schedule.table.gz (135/152): adding to final database dump
0005.749 (0) backup_2019-11-06-1437_Espace_Extranet_eebc05bc1bf9-db-table-extrn_wise_chat_actions.table.gz (136/152): adding to final database dump
0005.752 (0) backup_2019-11-06-1437_Espace_Extranet_eebc05bc1bf9-db-table-extrn_wise_chat_bans.table.gz (137/152): adding to final database dump
0005.753 (0) backup_2019-11-06-1437_Espace_Extranet_eebc05bc1bf9-db-table-extrn_wise_chat_channel_users.table.gz (138/152): adding to final database dump
0005.755 (0) backup_2019-11-06-1437_Espace_Extranet_eebc05bc1bf9-db-table-extrn_wise_chat_channels.table.gz (139/152): adding to final database dump
0005.757 (0) backup_2019-11-06-1437_Espace_Extranet_eebc05bc1bf9-db-table-extrn_wise_chat_kicks.table.gz (140/152): adding to final database dump
0005.758 (0) backup_2019-11-06-1437_Espace_Extranet_eebc05bc1bf9-db-table-extrn_wise_chat_messages.table.gz (141/152): adding to final database dump
0005.760 (0) backup_2019-11-06-1437_Espace_Extranet_eebc05bc1bf9-db-table-extrn_wise_chat_users.table.gz (142/152): adding to final database dump
0005.763 (0) backup_2019-11-06-1437_Espace_Extranet_eebc05bc1bf9-db-table-extrn_wpfront_ure_content_shortcodes.table.gz (143/152): adding to final database dump
0005.764 (0) backup_2019-11-06-1437_Espace_Extranet_eebc05bc1bf9-db-table-extrn_wpfront_ure_login_redirect.table.gz (144/152): adding to final database dump
0005.766 (0) backup_2019-11-06-1437_Espace_Extranet_eebc05bc1bf9-db-table-extrn_wpfront_ure_menu_editor.table.gz (145/152): adding to final database dump
0005.767 (0) backup_2019-11-06-1437_Espace_Extranet_eebc05bc1bf9-db-table-extrn_wpfront_ure_options.table.gz (146/152): adding to final database dump
0005.769 (0) backup_2019-11-06-1437_Espace_Extranet_eebc05bc1bf9-db-table-extrn_wpfront_ure_post_type_permissions.table.gz (147/152): adding to final database dump
0005.771 (0) backup_2019-11-06-1437_Espace_Extranet_eebc05bc1bf9-db.gz: finished writing out complete database file (2488 KB)
0005.839 (0) Total database tables backed up: 147 (backup_2019-11-06-1437_Espace_Extranet_eebc05bc1bf9-db.gz, size: 2566901, sha256)
0005.848 (0) backup_2019-11-06-1437_Espace_Extranet_eebc05bc1bf9-db.gz: db: This file has not yet been successfully uploaded: will queue
0005.849 (0) Saving backup history. Total backup size: 2.4 MB
0005.853 (0) Requesting upload of the files that have not yet been successfully uploaded (1)
0005.857 (0) Cloud backup selection (1/1): googledrive with instance (1/1) (last)
0005.859 (0) Beginning dispatch of backup to remote (googledrive) (instance identifier s-cef547f3c67ac1c3a0b32e222d46484f)
0008.696 (0) Google Drive quota usage: used=209.4 MB, total=15360 MB, available=15150.6 MB
0008.701 (0) backup_2019-11-06-1437_Espace_Extranet_eebc05bc1bf9-db.gz: Attempting to upload to Google Drive (into folder id: 1LRhTdrYbdazNYrtjvvZcMgqeqbIRZXSi)
0009.516 (0) Googledrive chunked upload: 40.8 % uploaded (1048576)
0009.929 (0) Googledrive chunked upload: 81.7 % uploaded (2097152)
0011.215 (0) Googledrive chunked upload: 100 % uploaded (2097152)
0011.220 (0) OK: Archive backup_2019-11-06-1437_Espace_Extranet_eebc05bc1bf9-db.gz uploaded to Google Drive in 2.52 seconds
0011.221 (0) Recording as successfully uploaded: backup_2019-11-06-1437_Espace_Extranet_eebc05bc1bf9-db.gz
0011.225 (0) Deleting local file: backup_2019-11-06-1437_Espace_Extranet_eebc05bc1bf9-db.gz: OK
0011.228 (0) Retain: beginning examination of existing backup sets; user setting: retain_files=2, retain_db=2
0011.229 (0) Number of backup sets in history: 4; groups (db): 1
0011.231 (0) Examining (for databases) backup set with group_id=0, nonce=eebc05bc1bf9, datestamp=1573047471 (Nov 06 2019 13:37:51)
0011.232 (0) This backup set is the backup set just made, so will not be deleted.
0011.232 (0) Examining (for databases) backup set with group_id=0, nonce=d2c9e54ecceb, datestamp=1572961096 (Nov 05 2019 13:38:16)
0011.232 (0) This backup set remains non-empty (f=0/d=1); will retain in history
0011.233 (0) Examining (for databases) backup set with group_id=0, nonce=070295935cb7, datestamp=1572874730 (Nov 04 2019 13:38:50)
0011.233 (0) 1572874730: db: this set includes a database (backup_2019-11-04-1438_Espace_Extranet_070295935cb7-db.gz); db count is now 2
0011.233 (0) 1572874730: db: over retain limit (2); will delete this database
0011.234 (0) Delete file: backup_2019-11-04-1438_Espace_Extranet_070295935cb7-db.gz, service=googledrive
0012.315 (0) backup_2019-11-04-1438_Espace_Extranet_070295935cb7-db.gz: Deletion successful
0012.322 (0) This backup set is now empty; will remove from history
0012.323 (0) Deleting log file (log.070295935cb7.txt)
0012.324 (0) Examining (for databases) backup set with group_id=0, nonce=b4445e31bf4b, datestamp=1571841671 (Oct 23 2019 14:41:11)
0012.325 (0) Number of backup sets in history: 3; groups (files): 1
0012.326 (0) Examining (for files) backup set with nonce=eebc05bc1bf9, datestamp=1573047471 (Nov 06 2019 13:37:51)
0012.326 (0) This backup set remains non-empty (f=0/d=1); will retain in history
0012.327 (0) Examining (for files) backup set with nonce=d2c9e54ecceb, datestamp=1572961096 (Nov 05 2019 13:38:16)
0012.327 (0) This backup set remains non-empty (f=0/d=1); will retain in history
0012.328 (0) Examining (for files) backup set with nonce=b4445e31bf4b, datestamp=1571841671 (Oct 23 2019 14:41:11)
0012.328 (0) This backup set remains non-empty (f=1/d=0); will retain in history
0012.329 (0) Retain: saving new backup history (sets now: 3) and finishing retain operation
0012.333 (0) Resume backup (eebc05bc1bf9, 0): finish run
0012.336 (0) Decremented the semaphore (d) by 1
0012.338 (0) Semaphore (d) unlocked
0012.339 (0) There were no errors in the uploads, so the 'resume' event (1) is being unscheduled
0012.344 (0) No email will/can be sent - the user has not configured an email address.
0012.345 (0) The backup apparently succeeded and is now complete
